<?xml version="1.0" encoding="UTF-8" standalone="no"?>
<!-- Created with Inkscape (http://www.inkscape.org/) -->

<svg
   xmlns:dc="http://purl.org/dc/elements/1.1/"
   xmlns:cc="http://creativecommons.org/ns#"
   xmlns:rdf="http://www.w3.org/1999/02/22-rdf-syntax-ns#"
   xmlns:svg="http://www.w3.org/2000/svg"
   xmlns="http://www.w3.org/2000/svg"
   xmlns:sodipodi="http://sodipodi.sourceforge.net/DTD/sodipodi-0.dtd"
   xmlns:inkscape="http://www.inkscape.org/namespaces/inkscape"
   width="311mm"
   height="264mm"
   viewBox="0 0 311 264"
   version="1.1"
   id="svg1864"
   inkscape:version="0.92.3 (2405546, 2018-03-11)"
   sodipodi:docname="Ownership.svg">
  <defs
     id="defs1858">
    <filter
       inkscape:collect="always"
       style="color-interpolation-filters:sRGB"
       id="filter2839"
       x="-0.1374817"
       width="1.2749634"
       y="-0.10646259"
       height="1.2129252">
      <feGaussianBlur
         inkscape:collect="always"
         stdDeviation="8.802409"
         id="feGaussianBlur2841" />
    </filter>
    <filter
       inkscape:collect="always"
       style="color-interpolation-filters:sRGB"
       id="filter851"
       x="-0.16001586"
       width="1.3200317"
       y="-0.13089847"
       height="1.2617969">
      <feGaussianBlur
         inkscape:collect="always"
         stdDeviation="13.239007"
         id="feGaussianBlur853" />
    </filter>
  </defs>
  <sodipodi:namedview
     id="base"
     pagecolor="#ffffff"
     bordercolor="#666666"
     borderopacity="1.0"
     inkscape:pageopacity="0.0"
     inkscape:pageshadow="2"
     inkscape:zoom="0.24748738"
     inkscape:cx="273.2704"
     inkscape:cy="779.30617"
     inkscape:document-units="mm"
     inkscape:current-layer="layer1"
     showgrid="false"
     inkscape:window-width="1366"
     inkscape:window-height="715"
     inkscape:window-x="-8"
     inkscape:window-y="-8"
     inkscape:window-maximized="1" />
  <metadata
     id="metadata1861">
    <rdf:RDF>
      <cc:Work
         rdf:about="">
        <dc:format>image/svg+xml</dc:format>
        <dc:type
           rdf:resource="http://purl.org/dc/dcmitype/StillImage" />
        <dc:title />
      </cc:Work>
    </rdf:RDF>
  </metadata>
  <g
     inkscape:label="Layer 1"
     inkscape:groupmode="layer"
     id="layer1"
     transform="translate(0,-33)">
    <path
       inkscape:export-ydpi="96.400002"
       inkscape:export-xdpi="96.400002"
       inkscape:export-filename="C:\Users\mohse\Desktop\path3474.png"
       sodipodi:nodetypes="cccccc"
       inkscape:connector-curvature="0"
       id="path2691"
       d="M 59.218203,77.443819 C 123.16254,25.991893 183.24716,36.075832 240.95065,84.114526 320.85966,143.7478 322.24492,200.19548 283.10749,232.69991 239.955,268.01881 202.16954,218.92703 147.23861,254.50044 82.89205,301.68064 53.258887,280.84527 26.56729,254.24618 -4.3836079,216.955 -15.1749,145.07109 59.218203,77.443819 Z"
       style="fill:#d2ebfb;fill-opacity:1;stroke:none;stroke-width:7.15735388;stroke-linecap:butt;stroke-linejoin:miter;stroke-opacity:1" />
    <g
       transform="matrix(0.60368054,0.25663529,-0.25663529,0.60368054,1803.5193,-1083.4563)"
       id="g2837"
       style="opacity:0.25;fill:#05314e;fill-opacity:1;filter:url(#filter851)">
      <g
         id="g2833"
         transform="matrix(2.249817,0,0,2.249817,-1609.2191,2586.6583)"
         style="fill:#05314e;fill-opacity:1">
        <polygon
           id="polygon2829"
           points="61,28.4 61,5.6 83.8,28.4 "
           style="fill:#05314e;fill-opacity:1" />
        <path
           id="path2831"
           d="M 64.265476,32.26602 63.836287,32.258245 63.325122,3.0539554 18.367558,2.2395902 20.081806,100.17945 93.365855,101.50692 92.162772,32.771353 Z"
           inkscape:connector-curvature="0"
           sodipodi:nodetypes="cccccccc"
           style="fill:#05314e;fill-opacity:1;stroke-width:1.09136736" />
      </g>
      <path
         inkscape:connector-curvature="0"
         style="color:#000000;text-indent:0;text-decoration:none;text-decoration-line:none;text-transform:none;direction:ltr;baseline-shift:baseline;display:inline;overflow:visible;visibility:visible;fill:#05314e;fill-opacity:1;fill-rule:nonzero;stroke:none;stroke-width:11.32799911;enable-background:accumulate"
         d="m -1516.2038,2686.295 8.142,7.8542 -19.47,20.2002 19.47,20.2 -8.142,7.8544 -27.059,-28.0544 z m 38.2982,0 27.0369,28.0544 -27.0369,28.0544 -8.1641,-7.8544 19.47,-20.2 -19.47,-20.2002 z"
         display="inline"
         overflow="visible"
         visibility="visible"
         id="path2835"
         sodipodi:nodetypes="cccccccccccccc" />
    </g>
    <polygon
       style="fill:#ffffff;fill-opacity:1"
       points="83.8,28.4 61,28.4 61,5.6 "
       id="polygon2771"
       transform="matrix(1.4429255,0.61341322,-0.61341322,1.4429255,175.57572,58.461489)" />
    <path
       style="fill:#ffffff;fill-opacity:1;stroke-width:1.56789982"
       sodipodi:nodetypes="cccccccc"
       inkscape:connector-curvature="0"
       d="m 239.69752,140.06887 -0.57718,-0.24546 16.13278,-37.94893 -60.45857,-25.702011 -54.10309,127.266081 98.55185,41.8961 37.97019,-89.31707 z"
       id="path2773" />
    <path
       inkscape:connector-curvature="0"
       style="color:#000000;text-indent:0;text-decoration:none;text-decoration-line:none;text-transform:none;direction:ltr;baseline-shift:baseline;display:inline;overflow:visible;visibility:visible;fill:#eb4e19;fill-opacity:1;fill-rule:nonzero;stroke:none;stroke-width:7.89449501;enable-background:accumulate"
       d="m 208.5944,145.60771 3.08036,7.25721 -17.99461,7.64703 6.97956,18.26366 -7.36328,2.81762 -9.70561,-25.3703 z m 24.56264,10.44205 9.69112,25.36429 -24.98897,10.62123 -3.09478,-7.26342 17.99462,-7.64672 -6.97967,-18.26415 z"
       display="inline"
       overflow="visible"
       visibility="visible"
       id="path2721"
       sodipodi:nodetypes="cccccccccccccc" />
    <g
       style="opacity:0.35;fill:#05314e;fill-opacity:1;filter:url(#filter2839)"
       id="g2851"
       transform="matrix(0.84922959,0,0,0.84922959,1369.81,-2119.9413)">
      <g
         style="fill:#05314e;fill-opacity:1"
         transform="matrix(2.249817,0,0,2.249817,-1609.2191,2586.6583)"
         id="g2847">
        <polygon
           style="fill:#05314e;fill-opacity:1"
           points="61,5.6 83.8,28.4 61,28.4 "
           id="polygon2843" />
        <path
           style="fill:#05314e;fill-opacity:1;stroke-width:0.93987525"
           sodipodi:nodetypes="cccccccc"
           inkscape:connector-curvature="0"
           d="M 58,38.96141 H 57.6 V 15.728896 H 15.7 V 93.641738 H 84 V 38.96141 Z"
           id="path2845" />
      </g>
      <path
         sodipodi:nodetypes="cccccccccccccc"
         id="path2849"
         visibility="visible"
         overflow="visible"
         display="inline"
         d="m -1516.2038,2686.295 8.142,7.8542 -19.47,20.2002 19.47,20.2 -8.142,7.8544 -27.059,-28.0544 z m 38.2982,0 27.0369,28.0544 -27.0369,28.0544 -8.1641,-7.8544 19.47,-20.2 -19.47,-20.2002 z"
         style="color:#000000;text-indent:0;text-decoration:none;text-decoration-line:none;text-transform:none;direction:ltr;baseline-shift:baseline;display:inline;overflow:visible;visibility:visible;fill:#05314e;fill-opacity:1;fill-rule:nonzero;stroke:none;stroke-width:11.32799911;enable-background:accumulate"
         inkscape:connector-curvature="0" />
    </g>
    <polygon
       id="polygon2853"
       points="61,5.6 83.8,28.4 61,28.4 "
       style="fill:#ffffff;fill-opacity:1"
       transform="matrix(1.9106112,0,0,1.9106112,6.7519222,66.141692)" />
    <path
       id="path2855"
       d="m 117.56732,127.09023 h -0.76425 V 76.841134 H 36.748539 V 245.35705 H 167.24321 V 127.09023 Z"
       inkscape:connector-curvature="0"
       sodipodi:nodetypes="cccccccc"
       style="fill:#ffffff;fill-opacity:1;stroke-width:1.91061127" />
    <path
       sodipodi:nodetypes="cccccccccccccc"
       id="path2859"
       visibility="visible"
       overflow="visible"
       display="inline"
       d="m 85.743261,143.34823 6.914382,6.66994 -16.534497,17.15466 16.534497,17.15438 -6.914382,6.67013 -22.979267,-23.82451 z m 32.524099,0 22.96038,23.8246 -22.96038,23.82451 -6.93337,-6.67013 16.53451,-17.15438 -16.53451,-17.15466 z"
       style="color:#000000;text-indent:0;text-decoration:none;text-decoration-line:none;text-transform:none;direction:ltr;baseline-shift:baseline;display:inline;overflow:visible;visibility:visible;fill:#eb4e19;fill-opacity:1;fill-rule:nonzero;stroke:none;stroke-width:9.62007141;enable-background:accumulate"
       inkscape:connector-curvature="0" />
    <g
       id="g2913"
       transform="matrix(-1.865254,0,0,-1.865254,243.8679,338.17627)"
       style="fill:#494848;fill-opacity:1">
      <path
         style="fill:#494848;fill-opacity:1"
         inkscape:connector-curvature="0"
         d="M 93.129,43.129 H 32.437 C 32.163,34.754 25.298,28.052 16.857,28.049 L 15.594,28.05 C 6.979,28.052 0.004,35.029 0,43.643 v 12.715 c 0.004,8.614 6.979,15.59 15.594,15.594 l 1.263,-0.001 c 8.441,-0.003 15.306,-6.703 15.58,-15.078 H 68.695 V 69.47 h 6.872 v -9.162 h 6.871 V 69.47 H 89.31 V 56.872 h 3.819 C 96.924,56.872 100,53.796 100,50 100,46.205 96.924,43.129 93.129,43.129 Z M 22.906,56.357 c -0.006,3.34 -2.711,6.044 -6.05,6.05 H 15.593 C 12.254,62.401 9.55,59.697 9.544,56.357 V 43.643 c 0.006,-3.34 2.71,-6.044 6.049,-6.05 h 1.263 c 3.339,0.006 6.044,2.71 6.05,6.05 z"
         id="path2911" />
    </g>
    <g
       id="g2948"
       transform="matrix(-1.8749494,0,0,-1.8749494,244.02529,338.66103)"
       style="fill:#2a2a2a;fill-opacity:1;stroke:#ffffff;stroke-width:1.9166311;stroke-opacity:1">
      <path
         sodipodi:nodetypes="ccccccccc"
         style="fill:#2a2a2a;fill-opacity:1;stroke:#ffffff;stroke-width:1.9166311;stroke-opacity:1"
         inkscape:connector-curvature="0"
         d="m 22.906,56.357 c -0.006,3.34 -2.711,6.044 -6.05,6.05 H 15.593 C 12.254,62.401 9.55,59.697 9.544,56.357 V 43.643 c 0.006,-3.34 2.71,-6.044 6.049,-6.05 h 1.263 c 3.339,0.006 6.044,2.71 6.05,6.05 z"
         id="path2946" />
    </g>
  </g>
</svg>
