<?xml version="1.0" encoding="UTF-8" standalone="no"?>
<!-- Created with Inkscape (http://www.inkscape.org/) -->

<svg
   xmlns:dc="http://purl.org/dc/elements/1.1/"
   xmlns:cc="http://creativecommons.org/ns#"
   xmlns:rdf="http://www.w3.org/1999/02/22-rdf-syntax-ns#"
   xmlns:svg="http://www.w3.org/2000/svg"
   xmlns="http://www.w3.org/2000/svg"
   xmlns:sodipodi="http://sodipodi.sourceforge.net/DTD/sodipodi-0.dtd"
   xmlns:inkscape="http://www.inkscape.org/namespaces/inkscape"
   width="300mm"
   height="300mm"
   viewBox="0 0 300 300"
   version="1.1"
   id="svg1251"
   inkscape:version="0.92.3 (2405546, 2018-03-11)"
   sodipodi:docname="productivity.svg">
  <defs
     id="defs1245">
    <filter
       inkscape:collect="always"
       style="color-interpolation-filters:sRGB"
       id="filter3704"
       x="-0.12683992"
       width="1.2536798"
       y="-0.16652969"
       height="1.3330594">
      <feGaussianBlur
         inkscape:collect="always"
         stdDeviation="11.957397"
         id="feGaussianBlur3706" />
    </filter>
    <filter
       inkscape:collect="always"
       style="color-interpolation-filters:sRGB"
       id="filter3796"
       x="-0.10569993"
       width="1.2113999"
       y="-0.13877474"
       height="1.2775495">
      <feGaussianBlur
         inkscape:collect="always"
         stdDeviation="9.9644978"
         id="feGaussianBlur3798" />
    </filter>
  </defs>
  <sodipodi:namedview
     id="base"
     pagecolor="#ffffff"
     bordercolor="#666666"
     borderopacity="1.0"
     inkscape:pageopacity="0.0"
     inkscape:pageshadow="2"
     inkscape:zoom="0.35"
     inkscape:cx="102.27386"
     inkscape:cy="382.49306"
     inkscape:document-units="mm"
     inkscape:current-layer="layer1"
     showgrid="false"
     inkscape:window-width="1366"
     inkscape:window-height="715"
     inkscape:window-x="-8"
     inkscape:window-y="-8"
     inkscape:window-maximized="1" />
  <metadata
     id="metadata1248">
    <rdf:RDF>
      <cc:Work
         rdf:about="">
        <dc:format>image/svg+xml</dc:format>
        <dc:type
           rdf:resource="http://purl.org/dc/dcmitype/StillImage" />
        <dc:title />
      </cc:Work>
    </rdf:RDF>
  </metadata>
  <g
     inkscape:label="Layer 1"
     inkscape:groupmode="layer"
     id="layer1"
     transform="translate(0,3)">
    <path
       style="fill:#d2ebfb;fill-opacity:1;stroke:none;stroke-width:6.90883684;stroke-linecap:butt;stroke-linejoin:miter;stroke-opacity:1"
       d="M 139.47467,287.53832 C 60.32867,284.0155 23.236969,238.37881 12.084171,166.76631 -7.7577287,72.588507 27.25067,30.814006 76.338769,32.236406 c 53.791801,1.9446 49.844401,61.6127 112.330901,70.887704 76.71198,6.8737 84.88589,40.8719 87.25169,77.1687 -1.36986,46.7594 -39.41246,105.71659 -136.44669,107.24551 z"
       id="path3506"
       inkscape:connector-curvature="0"
       sodipodi:nodetypes="cccccc"
       inkscape:export-filename="C:\Users\mohse\Desktop\path3474.png"
       inkscape:export-xdpi="96.400002"
       inkscape:export-ydpi="96.400002" />
    <rect
       ry="2.9112387"
       y="48.672745"
       x="48.317989"
       height="172.32816"
       width="226.25175"
       id="rect3790"
       style="opacity:0.25;fill:#05314e;fill-opacity:1;stroke:none;stroke-width:0.53113532;stroke-linecap:round;stroke-miterlimit:4;stroke-dasharray:1.59340586, 1.59340586;stroke-dashoffset:0;stroke-opacity:1;paint-order:markers stroke fill;filter:url(#filter3796)"
       inkscape:export-filename="C:\Users\mohse\Desktop\path3474.png"
       inkscape:export-xdpi="96.400002"
       inkscape:export-ydpi="96.400002" />
    <rect
       style="opacity:1;fill:#ffffff;fill-opacity:1;stroke:none;stroke-width:0.53113532;stroke-linecap:round;stroke-miterlimit:4;stroke-dasharray:1.59340588, 1.59340588;stroke-dashoffset:0;stroke-opacity:1;paint-order:markers stroke fill"
       id="rect3708"
       width="226.25175"
       height="172.32816"
       x="48.317982"
       y="48.672752"
       ry="2.9112387"
       inkscape:export-filename="C:\Users\mohse\Desktop\path3474.png"
       inkscape:export-xdpi="96.400002"
       inkscape:export-ydpi="96.400002" />
    <path
       style="opacity:1;fill:#e6e5e5;fill-opacity:1;stroke:none;stroke-width:3.0378418;stroke-linecap:round;stroke-miterlimit:4;stroke-dasharray:9.11352429, 9.11352429;stroke-dashoffset:0;stroke-opacity:1;paint-order:markers stroke fill"
       id="path3710"
       sodipodi:type="arc"
       sodipodi:cx="218.8362"
       sodipodi:cy="21.646587"
       sodipodi:rx="8.7116098"
       sodipodi:ry="8.7116098"
       sodipodi:start="1.0979762"
       sodipodi:end="1.0979133"
       sodipodi:open="true"
       d="m 222.80345,29.402425 a 8.7116098,8.7116098 0 0 1 -11.72303,-3.788459 8.7116098,8.7116098 0 0 1 3.78828,-11.723092 8.7116098,8.7116098 0 0 1 11.72315,3.788091 8.7116098,8.7116098 0 0 1 -3.78791,11.723211"
       transform="rotate(51.833057)"
       inkscape:export-filename="C:\Users\mohse\Desktop\path3474.png"
       inkscape:export-xdpi="96.400002"
       inkscape:export-ydpi="96.400002" />
    <path
       style="opacity:1;fill:#e6e5e5;fill-opacity:1;stroke:none;stroke-width:0.57290632;stroke-linecap:round;stroke-miterlimit:4;stroke-dasharray:1.71871882, 1.71871882;stroke-dashoffset:0;stroke-opacity:1;paint-order:markers stroke fill"
       d="m 107.55237,141.91641 8.0943,48.289 24.4737,-4.1024 c 17.1906,-2.8815 21.7071,-21.8646 9.2494,-28.1475 6.5591,-10.1772 -3.3434,-22.4882 -16.5876,-20.2682 z"
       id="path3714"
       inkscape:connector-curvature="0"
       inkscape:export-filename="C:\Users\mohse\Desktop\path3474.png"
       inkscape:export-xdpi="96.400002"
       inkscape:export-ydpi="96.400002" />
    <rect
       style="opacity:1;fill:#181818;fill-opacity:1;stroke:none;stroke-width:0.1897275;stroke-linecap:round;stroke-miterlimit:4;stroke-dasharray:0.56918244, 0.56918244;stroke-dashoffset:0;stroke-opacity:1;paint-order:markers stroke fill"
       id="rect3716"
       width="226.25175"
       height="21.989046"
       x="48.317982"
       y="48.672752"
       ry="0.37147361"
       inkscape:export-filename="C:\Users\mohse\Desktop\path3474.png"
       inkscape:export-xdpi="96.400002"
       inkscape:export-ydpi="96.400002" />
    <path
       d="m 67.502106,63.017258 a 3.4962797,3.4962797 0 0 1 -4.704871,-1.520444 3.4962797,3.4962797 0 0 1 1.52037,-4.704894 3.4962797,3.4962797 0 0 1 4.704919,1.520295 3.4962797,3.4962797 0 0 1 -1.520222,4.704943"
       sodipodi:open="true"
       sodipodi:end="1.0979133"
       sodipodi:start="1.0979762"
       sodipodi:ry="3.4962797"
       sodipodi:rx="3.4962797"
       sodipodi:cy="59.904564"
       sodipodi:cx="65.909904"
       sodipodi:type="arc"
       id="path3718"
       style="opacity:1;fill:#ff0000;fill-opacity:1;stroke:none;stroke-width:0.52899998;stroke-linecap:round;stroke-miterlimit:4;stroke-dasharray:1.58699994, 1.58699994;stroke-dashoffset:0;stroke-opacity:1;paint-order:markers stroke fill"
       inkscape:export-filename="C:\Users\mohse\Desktop\path3474.png"
       inkscape:export-xdpi="96.400002"
       inkscape:export-ydpi="96.400002" />
    <path
       style="opacity:1;fill:#ffcc00;fill-opacity:1;stroke:none;stroke-width:0.52899998;stroke-linecap:round;stroke-miterlimit:4;stroke-dasharray:1.58699994, 1.58699994;stroke-dashoffset:0;stroke-opacity:1;paint-order:markers stroke fill"
       id="path3720"
       sodipodi:type="arc"
       sodipodi:cx="78.609978"
       sodipodi:cy="59.904564"
       sodipodi:rx="3.4962797"
       sodipodi:ry="3.4962797"
       sodipodi:start="1.0979762"
       sodipodi:end="1.0979133"
       sodipodi:open="true"
       d="m 80.202179,63.017258 a 3.4962797,3.4962797 0 0 1 -4.704871,-1.520444 3.4962797,3.4962797 0 0 1 1.52037,-4.704894 3.4962797,3.4962797 0 0 1 4.704919,1.520295 3.4962797,3.4962797 0 0 1 -1.520222,4.704943"
       inkscape:export-filename="C:\Users\mohse\Desktop\path3474.png"
       inkscape:export-xdpi="96.400002"
       inkscape:export-ydpi="96.400002" />
    <path
       d="m 93.431427,63.017258 a 3.4962797,3.4962797 0 0 1 -4.70487,-1.520444 3.4962797,3.4962797 0 0 1 1.520369,-4.704894 3.4962797,3.4962797 0 0 1 4.704919,1.520295 3.4962797,3.4962797 0 0 1 -1.520222,4.704943"
       sodipodi:open="true"
       sodipodi:end="1.0979133"
       sodipodi:start="1.0979762"
       sodipodi:ry="3.4962797"
       sodipodi:rx="3.4962797"
       sodipodi:cy="59.904564"
       sodipodi:cx="91.839226"
       sodipodi:type="arc"
       id="path3722"
       style="opacity:1;fill:#5fd38d;fill-opacity:1;stroke:none;stroke-width:0.52899998;stroke-linecap:round;stroke-miterlimit:4;stroke-dasharray:1.58699994, 1.58699994;stroke-dashoffset:0;stroke-opacity:1;paint-order:markers stroke fill"
       inkscape:export-filename="C:\Users\mohse\Desktop\path3474.png"
       inkscape:export-xdpi="96.400002"
       inkscape:export-ydpi="96.400002" />
    <path
       inkscape:connector-curvature="0"
       id="path3724"
       d="m 111.78057,136.29931 8.0944,48.289 24.4736,-4.1024 c 17.1907,-2.8815 21.7072,-21.8644 9.2494,-28.1473 6.5591,-10.1774 -3.3434,-22.4883 -16.5876,-20.2683 z"
       style="opacity:1;fill:#494848;fill-opacity:1;stroke:none;stroke-width:0.57290632;stroke-linecap:round;stroke-miterlimit:4;stroke-dasharray:1.71871882, 1.71871882;stroke-dashoffset:0;stroke-opacity:1;paint-order:markers stroke fill"
       inkscape:export-filename="C:\Users\mohse\Desktop\path3474.png"
       inkscape:export-xdpi="96.400002"
       inkscape:export-ydpi="96.400002" />
    <path
       inkscape:connector-curvature="0"
       id="path3726"
       d="m 144.42787,152.78221 -1.4047,2.7391 c -0.2949,0.035 -0.5845,0.098 -0.8719,0.1608 l -2.2586,-2.0738 -3.6791,2.3576 0.9401,2.9177 c -0.1863,0.2394 -0.3599,0.4899 -0.522,0.7495 l -3.0996,0.1323 -0.935,4.268 2.7606,1.4158 c 0.039,0.2922 0.089,0.5817 0.1541,0.8668 l -2.0977,2.2838 2.3571,3.6792 2.9335,-0.9448 c 0.237,0.1849 0.4845,0.3581 0.7417,0.5197 l 0.1313,3.0756 4.2672,0.9345 1.3945,-2.7177 c 0.3192,-0.037 0.6349,-0.092 0.9436,-0.1728 l 2.2586,2.0737 3.6792,-2.3571 -0.94,-2.9176 c 0.1904,-0.2441 0.3675,-0.5005 0.5319,-0.7663 l 3.0281,-0.128 0.9351,-4.268 -2.697,-1.3835 c -0.042,-0.321 -0.095,-0.6388 -0.1696,-0.951 l 2.0491,-2.2319 -2.357,-3.6791 -2.9025,0.9353 c -0.247,-0.1914 -0.5057,-0.3695 -0.7741,-0.5348 l -0.1301,-3.0518 z m -0.6609,7.4435 a 4.1126545,4.1126545 0 0 1 3.7867,1.8078 4.1126545,4.1126545 0 0 1 -1.1289,5.7058 4.1126545,4.1126545 0 0 1 -5.7051,-1.1299 4.1126545,4.1126545 0 0 1 1.1291,-5.7049 4.1126545,4.1126545 0 0 1 1.9182,-0.6788 z"
       style="fill:#efefef;fill-opacity:1;stroke-width:0.30960673"
       inkscape:export-filename="C:\Users\mohse\Desktop\path3474.png"
       inkscape:export-xdpi="96.400002"
       inkscape:export-ydpi="96.400002" />
    <path
       style="fill:#efefef;fill-opacity:1;stroke-width:0.20698285"
       d="m 138.02667,136.91901 -0.1797,2.0501 c -0.1725,0.098 -0.3396,0.204 -0.5003,0.3177 l -1.9211,-0.7151 -1.6842,2.3871 1.3172,1.5697 c -0.055,0.1952 -0.099,0.3941 -0.1343,0.5956 l -1.8861,0.8627 0.4956,2.8786 2.0662,0.181 c 0.097,0.1713 0.2016,0.338 0.3139,0.4979 l -0.7235,1.943 2.3865,1.6842 1.5785,-1.3241 c 0.1935,0.055 0.3903,0.099 0.5902,0.1352 l 0.8564,1.8716 2.8777,-0.497 0.1788,-2.0342 c 0.1883,-0.1036 0.3689,-0.2189 0.543,-0.3413 l 1.921,0.7149 1.6845,-2.3863 -1.3172,-1.57 c 0.056,-0.1993 0.1014,-0.4026 0.1362,-0.6086 l 1.8429,-0.8423 -0.4956,-2.8785 -2.0187,-0.1772 c -0.1069,-0.1881 -0.2202,-0.3716 -0.3447,-0.5461 l 0.7066,-1.8985 -2.3865,-1.6843 -1.5617,1.3104 c -0.2013,-0.056 -0.4063,-0.1007 -0.6141,-0.1353 l -0.8495,-1.8571 z m 1.4662,4.776 a 2.7494526,2.7494526 0 0 1 2.8004,0.1652 2.7494526,2.7494526 0 0 1 0.7386,3.8176 2.7494526,2.7494526 0 0 1 -3.8176,0.7377 2.7494526,2.7494526 0 0 1 -0.7383,-3.8172 2.7494526,2.7494526 0 0 1 1.0168,-0.9036 z"
       id="path3728"
       inkscape:connector-curvature="0"
       inkscape:export-filename="C:\Users\mohse\Desktop\path3474.png"
       inkscape:export-xdpi="96.400002"
       inkscape:export-ydpi="96.400002" />
    <rect
       style="opacity:1;fill:#efefef;fill-opacity:1;stroke:none;stroke-width:0.58461297;stroke-linecap:round;stroke-miterlimit:4;stroke-dasharray:1.75383881, 1.75383881;stroke-dashoffset:0;stroke-opacity:1;paint-order:markers stroke fill"
       id="rect3730"
       width="90.48159"
       height="10.4615"
       x="75.242065"
       y="87.921288"
       ry="4.7505813"
       inkscape:export-filename="C:\Users\mohse\Desktop\path3474.png"
       inkscape:export-xdpi="96.400002"
       inkscape:export-ydpi="96.400002" />
    <rect
       ry="4.7505813"
       y="103.79629"
       x="75.242065"
       height="10.4615"
       width="90.48159"
       id="rect3732"
       style="opacity:1;fill:#efefef;fill-opacity:1;stroke:none;stroke-width:0.58461297;stroke-linecap:round;stroke-miterlimit:4;stroke-dasharray:1.75383881, 1.75383881;stroke-dashoffset:0;stroke-opacity:1;paint-order:markers stroke fill"
       inkscape:export-filename="C:\Users\mohse\Desktop\path3474.png"
       inkscape:export-xdpi="96.400002"
       inkscape:export-ydpi="96.400002" />
    <path
       style="opacity:1;fill:#eaeaea;fill-opacity:1;stroke:none;stroke-width:0.24033074;stroke-linecap:round;stroke-miterlimit:4;stroke-dasharray:0.72099216, 0.72099216;stroke-dashoffset:0;stroke-opacity:1;paint-order:markers stroke fill"
       d="m 223.2706,109.04581 v 20.5395 h 10.40978 c 7.31199,0 10.49703,-7.5405 5.77868,-11.0038 3.41946,-3.7557 0.17634,-9.5357 -5.45703,-9.5357 z"
       id="path3736"
       inkscape:connector-curvature="0"
       inkscape:export-filename="C:\Users\mohse\Desktop\path3474.png"
       inkscape:export-xdpi="96.400002"
       inkscape:export-ydpi="96.400002" />
    <path
       style="fill:#494848;fill-opacity:1;stroke-width:0.12987816"
       d="m 235.63442,118.12911 -0.77112,1.0358 c -0.12441,0 -0.24857,0 -0.37185,0 l -0.79063,-1.0146 -1.68562,0.7203 0.18658,1.2723 c -0.0936,0.086 -0.18286,0.1777 -0.2679,0.2739 l -1.29151,-0.1604 -0.68285,1.7009 1.04397,0.7772 c -0.004,0.1236 -0.004,0.2469 0.004,0.3693 l -1.02623,0.7994 0.72001,1.6856 1.27918,-0.1875 c 0.0853,0.093 0.17561,0.1819 0.27081,0.2665 l -0.15894,1.2816 1.70063,0.6825 0.7654,-1.0277 c 0.13466,0.01 0.26906,0.01 0.40238,0 l 0.79064,1.0146 1.68559,-0.72 -0.18657,-1.2723 c 0.0957,-0.088 0.18678,-0.1816 0.2732,-0.2801 l 1.2617,0.157 0.68285,-1.7009 -1.01987,-0.7594 c 0.005,-0.1358 0.005,-0.271 -0.004,-0.4053 l 1.00255,-0.7812 -0.72,-1.6856 -1.26566,0.1857 c -0.089,-0.096 -0.18363,-0.188 -0.28321,-0.275 l 0.15783,-1.2716 z m -0.78964,3.0337 a 1.7252337,1.7252337 0 0 1 1.44131,1.0105 1.7252337,1.7252337 0 0 1 -0.86277,2.2823 1.7252337,1.7252337 0 0 1 -2.28197,-0.863 1.7252337,1.7252337 0 0 1 0.86276,-2.282 1.7252337,1.7252337 0 0 1 0.84067,-0.1478 z"
       id="path3738"
       inkscape:connector-curvature="0"
       inkscape:export-filename="C:\Users\mohse\Desktop\path3474.png"
       inkscape:export-xdpi="96.400002"
       inkscape:export-ydpi="96.400002" />
    <path
       inkscape:connector-curvature="0"
       id="path3740"
       d="m 234.08623,111.12221 -0.21653,0.8357 c -0.0782,0.029 -0.15466,0.061 -0.22903,0.097 l -0.74521,-0.429 -0.86231,0.8707 0.43609,0.7409 c -0.0363,0.077 -0.0684,0.1561 -0.0969,0.237 l -0.84014,0.2262 0.005,1.2253 0.84227,0.2182 c 0.0285,0.078 0.06,0.1537 0.0953,0.2277 l -0.43406,0.7536 0.87054,0.8624 0.74489,-0.4384 c 0.0763,0.036 0.15456,0.068 0.23483,0.097 l 0.22449,0.8337 h 1.22504 l 0.21506,-0.8293 c 0.085,-0.03 0.1678,-0.065 0.24831,-0.1035 l 0.74519,0.4291 0.8624,-0.8706 -0.4361,-0.7408 c 0.0372,-0.079 0.0699,-0.1595 0.0986,-0.2423 l 0.82085,-0.2207 -0.005,-1.2253 -0.82288,-0.2133 c -0.0311,-0.085 -0.0654,-0.169 -0.10473,-0.2499 l 0.42398,-0.7364 -0.87054,-0.8623 -0.73699,0.4338 c -0.0794,-0.037 -0.16105,-0.07 -0.24462,-0.099 l -0.22268,-0.82721 z m 0.27539,2.0776 a 1.1533787,1.1533787 0 0 1 1.14712,0.2626 1.1533787,1.1533787 0 0 1 0.0408,1.6307 1.1533787,1.1533787 0 0 1 -1.63055,0.04 1.1533787,1.1533787 0 0 1 -0.0408,-1.6305 1.1533787,1.1533787 0 0 1 0.48334,-0.3033 z"
       style="fill:#494848;fill-opacity:1;stroke-width:0.08682805"
       inkscape:export-filename="C:\Users\mohse\Desktop\path3474.png"
       inkscape:export-xdpi="96.400002"
       inkscape:export-ydpi="96.400002" />
    <path
       style="opacity:1;fill:#eaeaea;fill-opacity:1;stroke:none;stroke-width:0.24033074;stroke-linecap:round;stroke-miterlimit:4;stroke-dasharray:0.72099216, 0.72099216;stroke-dashoffset:0;stroke-opacity:1;paint-order:markers stroke fill"
       d="m 223.2706,140.79581 v 20.5395 h 10.40978 c 7.31199,0 10.49703,-7.5405 5.77868,-11.0038 3.41946,-3.7557 0.17634,-9.5357 -5.45703,-9.5357 z"
       id="path3748"
       inkscape:connector-curvature="0"
       inkscape:export-filename="C:\Users\mohse\Desktop\path3474.png"
       inkscape:export-xdpi="96.400002"
       inkscape:export-ydpi="96.400002" />
    <path
       style="fill:#494848;fill-opacity:1;stroke-width:0.12987816"
       d="m 235.63442,149.87911 -0.77112,1.0358 c -0.12441,0 -0.24857,0 -0.37185,0 l -0.79063,-1.0146 -1.68562,0.7204 0.18658,1.2722 c -0.0936,0.086 -0.18286,0.1777 -0.2679,0.2739 l -1.29151,-0.1604 -0.68285,1.701 1.04397,0.7771 c -0.004,0.1236 -0.004,0.2469 0.004,0.3693 l -1.02623,0.7994 0.72001,1.6856 1.27918,-0.1875 c 0.0853,0.093 0.17561,0.1819 0.27081,0.2665 l -0.15894,1.2816 1.70063,0.6825 0.7654,-1.0276 c 0.13466,0.01 0.26906,0.01 0.40238,0 l 0.79064,1.0145 1.68559,-0.72 -0.18657,-1.2723 c 0.0957,-0.088 0.18678,-0.1816 0.2732,-0.2801 l 1.2617,0.157 0.68285,-1.7009 -1.01987,-0.7594 c 0.005,-0.1358 0.005,-0.2709 -0.004,-0.4052 l 1.00255,-0.7813 -0.72,-1.6856 -1.26566,0.1857 c -0.089,-0.096 -0.18363,-0.188 -0.28321,-0.275 l 0.15783,-1.2716 z m -0.78964,3.0338 a 1.7252337,1.7252337 0 0 1 1.44131,1.0105 1.7252337,1.7252337 0 0 1 -0.86277,2.2823 1.7252337,1.7252337 0 0 1 -2.28197,-0.8631 1.7252337,1.7252337 0 0 1 0.86276,-2.282 1.7252337,1.7252337 0 0 1 0.84067,-0.1477 z"
       id="path3750"
       inkscape:connector-curvature="0"
       inkscape:export-filename="C:\Users\mohse\Desktop\path3474.png"
       inkscape:export-xdpi="96.400002"
       inkscape:export-ydpi="96.400002" />
    <path
       inkscape:connector-curvature="0"
       id="path3752"
       d="m 234.08623,142.87231 -0.21653,0.8357 c -0.0782,0.029 -0.15466,0.061 -0.22903,0.097 l -0.74521,-0.4291 -0.86231,0.8707 0.43609,0.7409 c -0.0363,0.077 -0.0684,0.1561 -0.0969,0.2371 l -0.84014,0.2261 0.005,1.2253 0.84227,0.2182 c 0.0285,0.078 0.06,0.1538 0.0953,0.2277 l -0.43406,0.7536 0.87054,0.8624 0.74489,-0.4384 c 0.0763,0.036 0.15456,0.068 0.23483,0.097 l 0.22449,0.8337 h 1.22504 l 0.21506,-0.8292 c 0.085,-0.03 0.1678,-0.065 0.24831,-0.1036 l 0.74519,0.4291 0.8624,-0.8706 -0.4361,-0.7408 c 0.0372,-0.079 0.0699,-0.1595 0.0986,-0.2423 l 0.82085,-0.2207 -0.005,-1.2253 -0.82288,-0.2133 c -0.0311,-0.085 -0.0654,-0.169 -0.10473,-0.2498 l 0.42398,-0.7364 -0.87054,-0.8624 -0.73699,0.4339 c -0.0794,-0.037 -0.16105,-0.07 -0.24462,-0.099 l -0.22268,-0.8273 z m 0.27539,2.0775 a 1.1533787,1.1533787 0 0 1 1.14712,0.2626 1.1533787,1.1533787 0 0 1 0.0408,1.6307 1.1533787,1.1533787 0 0 1 -1.63055,0.04 1.1533787,1.1533787 0 0 1 -0.0408,-1.6305 1.1533787,1.1533787 0 0 1 0.48334,-0.3033 z"
       style="fill:#494848;fill-opacity:1;stroke-width:0.08682805"
       inkscape:export-filename="C:\Users\mohse\Desktop\path3474.png"
       inkscape:export-xdpi="96.400002"
       inkscape:export-ydpi="96.400002" />
    <g
       style="fill:#181818;fill-opacity:1;stroke:none"
       transform="matrix(1.0013601,0,0,1.0013601,142.77047,177.5176)"
       id="g3756"
       inkscape:export-filename="C:\Users\mohse\Desktop\path3474.png"
       inkscape:export-xdpi="96.400002"
       inkscape:export-ydpi="96.400002">
      <path
         style="fill:#181818;fill-opacity:1;stroke:none"
         sodipodi:nodetypes="scccsssccssscccssssccccccccs"
         inkscape:connector-curvature="0"
         d="m 15.520482,24.001 c -0.176,0 -0.346,-0.093 -0.438,-0.257 L 13.346,19.756 10.807,21.741 C 10.658,21.859 10.453,21.88 10.281,21.796 10.109,21.712 10,21.538 10,21.347 V 7.501 c 0,-0.202 0.122,-0.385 0.309,-0.462 0.187,-0.078 0.401,-0.034 0.545,0.108 l 10,10 c 0.143,0.143 0.186,0.358 0.108,0.545 -0.078,0.187 -0.26,0.309 -0.462,0.309 h -3.15 l 2.088,3.277482 c 0.065,0.119 0.08,0.26 0.04,0.391 -0.04,0.13 -0.135442,0.231552 -0.254,0.299 L 15.744482,23.948 c -0.06997,0.03981 -0.149,0.053 -0.224,0.053 z M 13.5,18.501 c 0.033,0 0.066,0.003 0.1,0.01 0.143,0.029 0.267,0.12 0.338,0.248 L 15.725482,22.841 18.31,21.308482 C 15.611094,16.86258 14.440201,17.002 19.294,17.002 L 11,8.708 v 11.613 l 2.192,-1.714 C 13.28,18.538 13.39,18.501 13.5,18.501 Z"
         id="path3754" />
    </g>
    <path
       inkscape:connector-curvature="0"
       id="path3764"
       d="m 223.2706,172.54581 v 20.5395 h 10.40978 c 7.31199,0 10.49703,-7.5404 5.77868,-11.0038 3.41946,-3.7557 0.17634,-9.5357 -5.45703,-9.5357 z"
       style="opacity:1;fill:#eaeaea;fill-opacity:1;stroke:none;stroke-width:0.24033074;stroke-linecap:round;stroke-miterlimit:4;stroke-dasharray:0.72099216, 0.72099216;stroke-dashoffset:0;stroke-opacity:1;paint-order:markers stroke fill"
       inkscape:export-filename="C:\Users\mohse\Desktop\path3474.png"
       inkscape:export-xdpi="96.400002"
       inkscape:export-ydpi="96.400002" />
    <path
       inkscape:connector-curvature="0"
       id="path3766"
       d="m 235.63442,181.62911 -0.77112,1.0358 c -0.12441,0 -0.24857,0 -0.37185,0 l -0.79063,-1.0145 -1.68562,0.7203 0.18658,1.2723 c -0.0936,0.086 -0.18286,0.1777 -0.2679,0.2738 l -1.29151,-0.1603 -0.68285,1.7009 1.04397,0.7771 c -0.004,0.1236 -0.004,0.2469 0.004,0.3693 l -1.02623,0.7994 0.72001,1.6856 1.27918,-0.1874 c 0.0853,0.093 0.17561,0.1818 0.27081,0.2665 l -0.15894,1.2816 1.70063,0.6825 0.7654,-1.0277 c 0.13466,0.01 0.26906,0.01 0.40238,0 l 0.79064,1.0145 1.68559,-0.72 -0.18657,-1.2722 c 0.0957,-0.088 0.18678,-0.1817 0.2732,-0.2802 l 1.2617,0.157 0.68285,-1.7009 -1.01987,-0.7594 c 0.005,-0.1358 0.005,-0.2709 -0.004,-0.4052 l 1.00255,-0.7813 -0.72,-1.6856 -1.26566,0.1857 c -0.089,-0.096 -0.18363,-0.188 -0.28321,-0.2749 l 0.15783,-1.2717 z m -0.78964,3.0338 a 1.7252337,1.7252337 0 0 1 1.44131,1.0105 1.7252337,1.7252337 0 0 1 -0.86277,2.2823 1.7252337,1.7252337 0 0 1 -2.28197,-0.8631 1.7252337,1.7252337 0 0 1 0.86276,-2.282 1.7252337,1.7252337 0 0 1 0.84067,-0.1477 z"
       style="fill:#494848;fill-opacity:1;stroke-width:0.12987816"
       inkscape:export-filename="C:\Users\mohse\Desktop\path3474.png"
       inkscape:export-xdpi="96.400002"
       inkscape:export-ydpi="96.400002" />
    <path
       style="fill:#494848;fill-opacity:1;stroke-width:0.08682805"
       d="m 234.08623,174.62231 -0.21653,0.8357 c -0.0782,0.029 -0.15466,0.061 -0.22903,0.097 l -0.74521,-0.4291 -0.86231,0.8708 0.43609,0.7408 c -0.0363,0.077 -0.0684,0.1561 -0.0969,0.2371 l -0.84014,0.2261 0.005,1.2253 0.84227,0.2182 c 0.0285,0.078 0.06,0.1538 0.0953,0.2278 l -0.43406,0.7536 0.87054,0.8623 0.74489,-0.4384 c 0.0763,0.036 0.15456,0.068 0.23483,0.097 l 0.22449,0.8337 h 1.22504 l 0.21506,-0.8292 c 0.085,-0.03 0.1678,-0.065 0.24831,-0.1035 l 0.74519,0.429 0.8624,-0.8705 -0.4361,-0.7409 c 0.0372,-0.079 0.0699,-0.1595 0.0986,-0.2423 l 0.82085,-0.2206 -0.005,-1.2254 -0.82288,-0.2133 c -0.0311,-0.085 -0.0654,-0.1689 -0.10473,-0.2498 l 0.42398,-0.7364 -0.87054,-0.8624 -0.73699,0.4339 c -0.0794,-0.037 -0.16105,-0.07 -0.24462,-0.099 l -0.22268,-0.8272 z m 0.27539,2.0775 a 1.1533787,1.1533787 0 0 1 1.14712,0.2627 1.1533787,1.1533787 0 0 1 0.0408,1.6306 1.1533787,1.1533787 0 0 1 -1.63055,0.04 1.1533787,1.1533787 0 0 1 -0.0408,-1.6304 1.1533787,1.1533787 0 0 1 0.48334,-0.3034 z"
       id="path3768"
       inkscape:connector-curvature="0"
       inkscape:export-filename="C:\Users\mohse\Desktop\path3474.png"
       inkscape:export-xdpi="96.400002"
       inkscape:export-ydpi="96.400002" />
    <g
       style="fill:#eb4e19;fill-opacity:1;stroke:none"
       transform="matrix(0.40985662,0,0,0.40985662,164.26877,196.26349)"
       id="g3772"
       inkscape:export-filename="C:\Users\mohse\Desktop\path3474.png"
       inkscape:export-xdpi="96.400002"
       inkscape:export-ydpi="96.400002">
      <polygon
         style="fill:#eb4e19;fill-opacity:1;stroke:none"
         id="polygon3770"
         points="11.016,24.008 16.023,29.016 21.031,24.008 17.5,24.008 17.5,17.504 24.008,17.504 24.008,21.031 29.016,16.023 24.008,11.016 24.008,14.504 17.5,14.504 17.5,8.008 21.016,8.008 16.008,3 11,8.008 14.5,8.008 14.5,14.504 8.008,14.504 8.008,11.016 3,16.023 8.008,21.031 8.008,17.504 14.5,17.504 14.5,24.008 " />
    </g>
    <path
       style="opacity:1;fill:#eb4e19;fill-opacity:1;stroke:none;stroke-width:1.19805038;stroke-linecap:round;stroke-miterlimit:4;stroke-dasharray:3.59415036, 3.59415036;stroke-dashoffset:0;stroke-opacity:1;paint-order:markers stroke fill"
       id="path3778"
       sodipodi:type="arc"
       sodipodi:cx="224.11113"
       sodipodi:cy="128.39796"
       sodipodi:rx="3.4356451"
       sodipodi:ry="3.4356451"
       sodipodi:start="1.0979762"
       sodipodi:end="1.0979133"
       sodipodi:open="true"
       d="m 225.67572,131.45668 a 3.4356451,3.4356451 0 0 1 -4.62328,-1.49408 3.4356451,3.4356451 0 0 1 1.494,-4.6233 3.4356451,3.4356451 0 0 1 4.62333,1.49393 3.4356451,3.4356451 0 0 1 -1.49386,4.62335"
       inkscape:export-filename="C:\Users\mohse\Desktop\path3474.png"
       inkscape:export-xdpi="96.400002"
       inkscape:export-ydpi="96.400002" />
    <path
       d="m 225.67572,163.2068 a 3.4356451,3.4356451 0 0 1 -4.62328,-1.49408 3.4356451,3.4356451 0 0 1 1.494,-4.6233 3.4356451,3.4356451 0 0 1 4.62333,1.49393 3.4356451,3.4356451 0 0 1 -1.49386,4.62335"
       sodipodi:open="true"
       sodipodi:end="1.0979133"
       sodipodi:start="1.0979762"
       sodipodi:ry="3.4356451"
       sodipodi:rx="3.4356451"
       sodipodi:cy="160.14809"
       sodipodi:cx="224.11113"
       sodipodi:type="arc"
       id="path3780"
       style="opacity:1;fill:#eb4e19;fill-opacity:1;stroke:none;stroke-width:1.19805038;stroke-linecap:round;stroke-miterlimit:4;stroke-dasharray:3.59415036, 3.59415036;stroke-dashoffset:0;stroke-opacity:1;paint-order:markers stroke fill"
       inkscape:export-filename="C:\Users\mohse\Desktop\path3474.png"
       inkscape:export-xdpi="96.400002"
       inkscape:export-ydpi="96.400002" />
    <path
       style="opacity:1;fill:#eb4e19;fill-opacity:1;stroke:none;stroke-width:1.19805038;stroke-linecap:round;stroke-miterlimit:4;stroke-dasharray:3.59415036, 3.59415036;stroke-dashoffset:0;stroke-opacity:1;paint-order:markers stroke fill"
       id="path3784"
       sodipodi:type="arc"
       sodipodi:cx="224.11113"
       sodipodi:cy="191.89821"
       sodipodi:rx="3.4356451"
       sodipodi:ry="3.4356451"
       sodipodi:start="1.0979762"
       sodipodi:end="1.0979133"
       sodipodi:open="true"
       d="m 225.67572,194.95692 a 3.4356451,3.4356451 0 0 1 -4.62328,-1.49407 3.4356451,3.4356451 0 0 1 1.494,-4.6233 3.4356451,3.4356451 0 0 1 4.62333,1.49393 3.4356451,3.4356451 0 0 1 -1.49386,4.62334"
       inkscape:export-filename="C:\Users\mohse\Desktop\path3474.png"
       inkscape:export-xdpi="96.400002"
       inkscape:export-ydpi="96.400002" />
    <path
       transform="rotate(51.833057)"
       d="m 221.09423,24.185148 a 8.7116098,8.7116098 0 0 1 -11.72304,-3.788459 8.7116098,8.7116098 0 0 1 3.78828,-11.7230921 8.7116098,8.7116098 0 0 1 11.72315,3.7880901 8.7116098,8.7116098 0 0 1 -3.78791,11.723211"
       sodipodi:open="true"
       sodipodi:end="1.0979133"
       sodipodi:start="1.0979762"
       sodipodi:ry="8.7116098"
       sodipodi:rx="8.7116098"
       sodipodi:cy="16.42931"
       sodipodi:cx="217.12697"
       sodipodi:type="arc"
       id="path3786"
       style="opacity:1;fill:#eb4e19;fill-opacity:1;stroke:none;stroke-width:3.0378418;stroke-linecap:round;stroke-miterlimit:4;stroke-dasharray:9.11352429, 9.11352429;stroke-dashoffset:0;stroke-opacity:1;paint-order:markers stroke fill"
       inkscape:export-filename="C:\Users\mohse\Desktop\path3474.png"
       inkscape:export-xdpi="96.400002"
       inkscape:export-ydpi="96.400002" />
    <rect
       style="opacity:0.253;fill:#062f4c;fill-opacity:0.81666667;stroke:none;stroke-width:0.53113532;stroke-linecap:round;stroke-miterlimit:4;stroke-dasharray:1.59340586, 1.59340586;stroke-dashoffset:0;stroke-opacity:1;paint-order:markers stroke fill;filter:url(#filter3704)"
       id="rect3510"
       width="226.25175"
       height="172.32816"
       x="30.326298"
       y="85.714127"
       ry="2.9112387"
       inkscape:export-filename="C:\Users\mohse\Desktop\path3474.png"
       inkscape:export-xdpi="96.400002"
       inkscape:export-ydpi="96.400002" />
    <rect
       ry="2.9112387"
       y="85.714127"
       x="30.32629"
       height="172.32816"
       width="226.25175"
       id="rect2189-1"
       style="opacity:1;fill:#ffffff;fill-opacity:1;stroke:none;stroke-width:0.53113532;stroke-linecap:round;stroke-miterlimit:4;stroke-dasharray:1.59340588, 1.59340588;stroke-dashoffset:0;stroke-opacity:1;paint-order:markers stroke fill"
       inkscape:export-filename="C:\Users\mohse\Desktop\path3474.png"
       inkscape:export-xdpi="96.400002"
       inkscape:export-ydpi="96.400002" />
    <path
       transform="rotate(51.833057)"
       d="m 228.14574,73.984941 a 8.7116098,8.7116098 0 0 1 -11.72303,-3.788459 8.7116098,8.7116098 0 0 1 3.78827,-11.723092 8.7116098,8.7116098 0 0 1 11.72315,3.78809 8.7116098,8.7116098 0 0 1 -3.7879,11.723211"
       sodipodi:open="true"
       sodipodi:end="1.0979133"
       sodipodi:start="1.0979762"
       sodipodi:ry="8.7116098"
       sodipodi:rx="8.7116098"
       sodipodi:cy="66.229103"
       sodipodi:cx="224.17848"
       sodipodi:type="arc"
       id="path3476"
       style="opacity:1;fill:#e6e5e5;fill-opacity:1;stroke:none;stroke-width:3.0378418;stroke-linecap:round;stroke-miterlimit:4;stroke-dasharray:9.11352429, 9.11352429;stroke-dashoffset:0;stroke-opacity:1;paint-order:markers stroke fill"
       inkscape:export-filename="C:\Users\mohse\Desktop\path3474.png"
       inkscape:export-xdpi="96.400002"
       inkscape:export-ydpi="96.400002" />
    <rect
       style="opacity:1;fill:#181818;fill-opacity:1;stroke:none;stroke-width:0.31311613;stroke-linecap:round;stroke-miterlimit:4;stroke-dasharray:0.9393483, 0.9393483;stroke-dashoffset:0;stroke-opacity:1;paint-order:markers stroke fill"
       id="rect3227-6"
       width="78.630753"
       height="172.32816"
       x="177.94739"
       y="85.714127"
       ry="0"
       inkscape:export-filename="C:\Users\mohse\Desktop\path3474.png"
       inkscape:export-xdpi="96.400002"
       inkscape:export-ydpi="96.400002" />
    <path
       inkscape:connector-curvature="0"
       id="path2937-9"
       d="m 75.802271,173.66661 8.0944,48.289 24.473599,-4.1024 c 17.1907,-2.8815 21.7072,-21.8646 9.2494,-28.1475 6.5592,-10.1772 -3.3433,-22.4882 -16.5875,-20.2682 z"
       style="opacity:1;fill:#e6e5e5;fill-opacity:1;stroke:none;stroke-width:0.57290632;stroke-linecap:round;stroke-miterlimit:4;stroke-dasharray:1.71871882, 1.71871882;stroke-dashoffset:0;stroke-opacity:1;paint-order:markers stroke fill"
       inkscape:export-filename="C:\Users\mohse\Desktop\path3474.png"
       inkscape:export-xdpi="96.400002"
       inkscape:export-ydpi="96.400002" />
    <rect
       ry="0.37147361"
       y="85.714127"
       x="30.32629"
       height="21.989046"
       width="226.25175"
       id="rect2191-0"
       style="opacity:1;fill:#181818;fill-opacity:1;stroke:none;stroke-width:0.1897275;stroke-linecap:round;stroke-miterlimit:4;stroke-dasharray:0.56918244, 0.56918244;stroke-dashoffset:0;stroke-opacity:1;paint-order:markers stroke fill"
       inkscape:export-filename="C:\Users\mohse\Desktop\path3474.png"
       inkscape:export-xdpi="96.400002"
       inkscape:export-ydpi="96.400002" />
    <path
       style="opacity:1;fill:#ff0000;fill-opacity:1;stroke:none;stroke-width:0.52899998;stroke-linecap:round;stroke-miterlimit:4;stroke-dasharray:1.58699994, 1.58699994;stroke-dashoffset:0;stroke-opacity:1;paint-order:markers stroke fill"
       id="path2154-2"
       sodipodi:type="arc"
       sodipodi:cx="47.918201"
       sodipodi:cy="96.945946"
       sodipodi:rx="3.4962797"
       sodipodi:ry="3.4962797"
       sodipodi:start="1.0979762"
       sodipodi:end="1.0979133"
       sodipodi:open="true"
       d="m 49.510403,100.05864 a 3.4962797,3.4962797 0 0 1 -4.704871,-1.520444 3.4962797,3.4962797 0 0 1 1.52037,-4.704894 3.4962797,3.4962797 0 0 1 4.704919,1.520295 3.4962797,3.4962797 0 0 1 -1.520222,4.704943"
       inkscape:export-filename="C:\Users\mohse\Desktop\path3474.png"
       inkscape:export-xdpi="96.400002"
       inkscape:export-ydpi="96.400002" />
    <path
       d="m 62.21048,100.05864 a 3.4962797,3.4962797 0 0 1 -4.704871,-1.520444 3.4962797,3.4962797 0 0 1 1.52037,-4.704894 3.4962797,3.4962797 0 0 1 4.704919,1.520295 3.4962797,3.4962797 0 0 1 -1.520222,4.704943"
       sodipodi:open="true"
       sodipodi:end="1.0979133"
       sodipodi:start="1.0979762"
       sodipodi:ry="3.4962797"
       sodipodi:rx="3.4962797"
       sodipodi:cy="96.945946"
       sodipodi:cx="60.618279"
       sodipodi:type="arc"
       id="path2156-2"
       style="opacity:1;fill:#ffcc00;fill-opacity:1;stroke:none;stroke-width:0.52899998;stroke-linecap:round;stroke-miterlimit:4;stroke-dasharray:1.58699994, 1.58699994;stroke-dashoffset:0;stroke-opacity:1;paint-order:markers stroke fill"
       inkscape:export-filename="C:\Users\mohse\Desktop\path3474.png"
       inkscape:export-xdpi="96.400002"
       inkscape:export-ydpi="96.400002" />
    <path
       style="opacity:1;fill:#5fd38d;fill-opacity:1;stroke:none;stroke-width:0.52899998;stroke-linecap:round;stroke-miterlimit:4;stroke-dasharray:1.58699994, 1.58699994;stroke-dashoffset:0;stroke-opacity:1;paint-order:markers stroke fill"
       id="path2158-1"
       sodipodi:type="arc"
       sodipodi:cx="73.847527"
       sodipodi:cy="96.945946"
       sodipodi:rx="3.4962797"
       sodipodi:ry="3.4962797"
       sodipodi:start="1.0979762"
       sodipodi:end="1.0979133"
       sodipodi:open="true"
       d="m 75.439728,100.05864 a 3.4962797,3.4962797 0 0 1 -4.704871,-1.520444 3.4962797,3.4962797 0 0 1 1.52037,-4.704894 3.4962797,3.4962797 0 0 1 4.704919,1.520295 3.4962797,3.4962797 0 0 1 -1.520222,4.704943"
       inkscape:export-filename="C:\Users\mohse\Desktop\path3474.png"
       inkscape:export-xdpi="96.400002"
       inkscape:export-ydpi="96.400002" />
    <path
       style="opacity:1;fill:#494848;fill-opacity:1;stroke:none;stroke-width:0.57290632;stroke-linecap:round;stroke-miterlimit:4;stroke-dasharray:1.71871882, 1.71871882;stroke-dashoffset:0;stroke-opacity:1;paint-order:markers stroke fill"
       d="m 80.030569,168.04951 8.0943,48.289 24.473701,-4.1024 c 17.1906,-2.8815 21.7072,-21.8644 9.2494,-28.1473 6.5591,-10.1774 -3.3434,-22.4883 -16.5876,-20.2683 z"
       id="rect2778-5"
       inkscape:connector-curvature="0"
       inkscape:export-filename="C:\Users\mohse\Desktop\path3474.png"
       inkscape:export-xdpi="96.400002"
       inkscape:export-ydpi="96.400002" />
    <path
       style="fill:#efefef;fill-opacity:1;stroke-width:0.30960673"
       d="m 112.67777,184.53241 -1.4047,2.7391 c -0.2948,0.035 -0.5844,0.098 -0.8718,0.1608 l -2.2586,-2.0738 -3.6791,2.3576 0.94,2.9177 c -0.1862,0.2394 -0.3598,0.4899 -0.5219,0.7495 l -3.0996,0.1323 -0.935,4.268 2.7606,1.4158 c 0.039,0.2922 0.089,0.5817 0.1541,0.8668 l -2.0977,2.2838 2.357,3.6792 2.9336,-0.9448 c 0.237,0.1849 0.4845,0.3581 0.7416,0.5197 l 0.1314,3.0756 4.2672,0.9345 1.3944,-2.7177 c 0.3193,-0.037 0.635,-0.092 0.9437,-0.1728 l 2.2586,2.0737 3.6792,-2.3571 -0.9401,-2.9176 c 0.1905,-0.2441 0.3676,-0.5005 0.5319,-0.7663 l 3.0282,-0.128 0.9351,-4.268 -2.697,-1.3835 c -0.042,-0.321 -0.095,-0.6388 -0.1697,-0.951 l 2.0492,-2.2319 -2.357,-3.6791 -2.9025,0.9353 c -0.2471,-0.1914 -0.5057,-0.3695 -0.7741,-0.5348 l -0.1301,-3.0518 z m -0.6609,7.4435 a 4.1126545,4.1126545 0 0 1 3.7868,1.8078 4.1126545,4.1126545 0 0 1 -1.129,5.7058 4.1126545,4.1126545 0 0 1 -5.705,-1.1299 4.1126545,4.1126545 0 0 1 1.129,-5.7049 4.1126545,4.1126545 0 0 1 1.9182,-0.6788 z"
       id="path2890-1"
       inkscape:connector-curvature="0"
       inkscape:export-filename="C:\Users\mohse\Desktop\path3474.png"
       inkscape:export-xdpi="96.400002"
       inkscape:export-ydpi="96.400002" />
    <path
       inkscape:connector-curvature="0"
       id="path2915-4"
       d="m 106.27667,168.66921 -0.1797,2.0501 c -0.1726,0.098 -0.3396,0.204 -0.5003,0.3177 l -1.9211,-0.7151 -1.6842,2.3871 1.3172,1.5697 c -0.055,0.1952 -0.099,0.3941 -0.1344,0.5956 l -1.8861,0.8627 0.4957,2.8786 2.0662,0.181 c 0.097,0.1713 0.2016,0.338 0.3139,0.4979 l -0.7235,1.943 2.3865,1.6842 1.5785,-1.3241 c 0.1935,0.055 0.3903,0.099 0.5902,0.1352 l 0.8563,1.8716 2.8778,-0.497 0.1788,-2.0342 c 0.1883,-0.1036 0.3689,-0.2189 0.543,-0.3413 l 1.921,0.7149 1.6845,-2.3863 -1.3172,-1.57 c 0.056,-0.1993 0.1014,-0.4026 0.1362,-0.6086 l 1.8429,-0.8423 -0.4956,-2.8785 -2.0187,-0.1772 c -0.1069,-0.1881 -0.2202,-0.3716 -0.3447,-0.5461 l 0.7066,-1.8985 -2.3865,-1.6843 -1.5617,1.3104 c -0.2013,-0.056 -0.4063,-0.1007 -0.6141,-0.1353 l -0.8495,-1.8571 z m 1.4662,4.776 a 2.7494526,2.7494526 0 0 1 2.8004,0.1652 2.7494526,2.7494526 0 0 1 0.7385,3.8176 2.7494526,2.7494526 0 0 1 -3.8175,0.7377 2.7494526,2.7494526 0 0 1 -0.7383,-3.8172 2.7494526,2.7494526 0 0 1 1.0168,-0.9036 z"
       style="fill:#efefef;fill-opacity:1;stroke-width:0.20698285"
       inkscape:export-filename="C:\Users\mohse\Desktop\path3474.png"
       inkscape:export-xdpi="96.400002"
       inkscape:export-ydpi="96.400002" />
    <rect
       ry="4.7505813"
       y="124.43353"
       x="43.491932"
       height="10.4615"
       width="90.48159"
       id="rect3031-7"
       style="opacity:1;fill:#dbdbdb;fill-opacity:1;stroke:none;stroke-width:0.58461297;stroke-linecap:round;stroke-miterlimit:4;stroke-dasharray:1.75383881, 1.75383881;stroke-dashoffset:0;stroke-opacity:1;paint-order:markers stroke fill"
       inkscape:export-filename="C:\Users\mohse\Desktop\path3474.png"
       inkscape:export-xdpi="96.400002"
       inkscape:export-ydpi="96.400002" />
    <rect
       style="opacity:1;fill:#dbdbdb;fill-opacity:1;stroke:none;stroke-width:0.47526461;stroke-linecap:round;stroke-miterlimit:4;stroke-dasharray:1.42579374, 1.42579374;stroke-dashoffset:0;stroke-opacity:1;paint-order:markers stroke fill"
       id="rect3057-6"
       width="59.799049"
       height="10.4615"
       x="43.491932"
       y="140.30849"
       ry="4.7505813"
       inkscape:export-filename="C:\Users\mohse\Desktop\path3474.png"
       inkscape:export-xdpi="96.400002"
       inkscape:export-ydpi="96.400002" />
    <path
       style="opacity:0.82900002;fill:#2a2a2a;fill-opacity:1;stroke:none;stroke-width:0.60355675;stroke-linecap:round;stroke-miterlimit:4;stroke-dasharray:1.81067046, 1.81067046;stroke-dashoffset:0;stroke-opacity:1;paint-order:markers stroke fill"
       d="m 223.2706,172.54601 v 20.5395 h 10.4098 c 7.31197,0 10.497,-7.5405 5.77866,-11.0038 3.41947,-3.7557 0.17634,-9.5357 -5.45704,-9.5357 z"
       id="path3061-7"
       inkscape:connector-curvature="0"
       inkscape:export-filename="C:\Users\mohse\Desktop\path3474.png"
       inkscape:export-xdpi="96.400002"
       inkscape:export-ydpi="96.400002" />
    <path
       inkscape:connector-curvature="0"
       id="path3197-8"
       d="m 191.52057,140.79601 v 20.5395 h 10.40979 c 7.31199,0 10.49703,-7.5405 5.77868,-11.0038 3.41946,-3.7557 0.17634,-9.5357 -5.45703,-9.5357 z"
       style="opacity:1;fill:#eaeaea;fill-opacity:1;stroke:none;stroke-width:0.24033074;stroke-linecap:round;stroke-miterlimit:4;stroke-dasharray:0.72099216, 0.72099216;stroke-dashoffset:0;stroke-opacity:1;paint-order:markers stroke fill"
       inkscape:export-filename="C:\Users\mohse\Desktop\path3474.png"
       inkscape:export-xdpi="96.400002"
       inkscape:export-ydpi="96.400002" />
    <path
       inkscape:connector-curvature="0"
       id="path3199-7"
       d="m 203.8844,149.87931 -0.77112,1.0358 c -0.12441,0 -0.24857,0 -0.37185,0 l -0.79063,-1.0146 -1.68562,0.7203 0.18658,1.2723 c -0.0936,0.086 -0.18286,0.1777 -0.2679,0.2739 l -1.29151,-0.1604 -0.68285,1.7009 1.04397,0.7772 c -0.004,0.1236 -0.004,0.2469 0.004,0.3693 l -1.02624,0.7994 0.72001,1.6856 1.27919,-0.1875 c 0.0853,0.093 0.17562,0.1819 0.2708,0.2665 l -0.15893,1.2816 1.70062,0.6825 0.7654,-1.0277 c 0.13466,0.01 0.26906,0.01 0.40239,0 l 0.79063,1.0146 1.6856,-0.72 -0.18656,-1.2723 c 0.0957,-0.088 0.18678,-0.1816 0.27319,-0.2801 l 1.2617,0.157 0.68285,-1.7009 -1.01986,-0.7594 c 0.005,-0.1358 0.005,-0.271 -0.004,-0.4053 l 1.00255,-0.7812 -0.72,-1.6856 -1.26566,0.1857 c -0.089,-0.096 -0.18363,-0.188 -0.28321,-0.275 l 0.15783,-1.2716 z m -0.78964,3.0337 a 1.7252337,1.7252337 0 0 1 1.44131,1.0105 1.7252337,1.7252337 0 0 1 -0.86277,2.2823 1.7252337,1.7252337 0 0 1 -2.28197,-0.863 1.7252337,1.7252337 0 0 1 0.86276,-2.282 1.7252337,1.7252337 0 0 1 0.84067,-0.1478 z"
       style="fill:#494848;fill-opacity:1;stroke-width:0.12987816"
       inkscape:export-filename="C:\Users\mohse\Desktop\path3474.png"
       inkscape:export-xdpi="96.400002"
       inkscape:export-ydpi="96.400002" />
    <path
       style="fill:#494848;fill-opacity:1;stroke-width:0.08682805"
       d="m 202.33621,142.87241 -0.21653,0.8357 c -0.0782,0.029 -0.15466,0.061 -0.22903,0.097 l -0.74521,-0.429 -0.86231,0.8707 0.43609,0.7409 c -0.0363,0.077 -0.0684,0.1561 -0.0969,0.237 l -0.84014,0.2262 0.005,1.2253 0.84227,0.2182 c 0.0285,0.078 0.06,0.1537 0.0953,0.2277 l -0.43406,0.7536 0.87054,0.8624 0.74489,-0.4384 c 0.0763,0.036 0.15456,0.068 0.23483,0.097 l 0.22449,0.8337 h 1.22504 l 0.21506,-0.8293 c 0.085,-0.03 0.1678,-0.065 0.24831,-0.1035 l 0.74519,0.4291 0.8624,-0.8706 -0.4361,-0.7408 c 0.0372,-0.079 0.0699,-0.1595 0.0986,-0.2423 l 0.82085,-0.2207 -0.005,-1.2253 -0.82288,-0.2133 c -0.0311,-0.085 -0.0654,-0.169 -0.10473,-0.2499 l 0.42398,-0.7364 -0.87054,-0.8623 -0.73699,0.4338 c -0.0794,-0.037 -0.16105,-0.07 -0.24462,-0.099 l -0.22268,-0.8272 z m 0.27539,2.0776 a 1.1533787,1.1533787 0 0 1 1.14712,0.2626 1.1533787,1.1533787 0 0 1 0.0408,1.6307 1.1533787,1.1533787 0 0 1 -1.63055,0.04 1.1533787,1.1533787 0 0 1 -0.0408,-1.6305 1.1533787,1.1533787 0 0 1 0.48334,-0.3033 z"
       id="path3201-0"
       inkscape:connector-curvature="0"
       inkscape:export-filename="C:\Users\mohse\Desktop\path3474.png"
       inkscape:export-xdpi="96.400002"
       inkscape:export-ydpi="96.400002" />
    <path
       style="opacity:1;fill:#eaeaea;fill-opacity:1;stroke:none;stroke-width:0.24033074;stroke-linecap:round;stroke-miterlimit:4;stroke-dasharray:0.72099216, 0.72099216;stroke-dashoffset:0;stroke-opacity:1;paint-order:markers stroke fill"
       d="m 223.2706,140.79601 v 20.5395 h 10.40977 c 7.312,0 10.49703,-7.5405 5.77869,-11.0038 3.41947,-3.7557 0.17634,-9.5357 -5.45704,-9.5357 z"
       id="path3203-8"
       inkscape:connector-curvature="0"
       inkscape:export-filename="C:\Users\mohse\Desktop\path3474.png"
       inkscape:export-xdpi="96.400002"
       inkscape:export-ydpi="96.400002" />
    <path
       style="fill:#494848;fill-opacity:1;stroke-width:0.12987816"
       d="m 235.63442,149.87931 -0.77112,1.0358 c -0.12441,0 -0.24858,0 -0.37185,0 l -0.79063,-1.0146 -1.68563,0.7203 0.18658,1.2723 c -0.0936,0.086 -0.18285,0.1777 -0.26789,0.2739 l -1.29151,-0.1604 -0.68286,1.7009 1.04399,0.7772 c -0.004,0.1236 -0.004,0.2469 0.004,0.3693 l -1.02624,0.7994 0.72,1.6856 1.27918,-0.1875 c 0.0853,0.093 0.17561,0.1819 0.27081,0.2665 l -0.15894,1.2816 1.70063,0.6825 0.7654,-1.0277 c 0.13466,0.01 0.26906,0.01 0.40237,0 l 0.79066,1.0146 1.68557,-0.72 -0.18655,-1.2723 c 0.0957,-0.088 0.18677,-0.1816 0.27318,-0.2801 l 1.26173,0.157 0.68282,-1.7009 -1.01986,-0.7594 c 0.005,-0.1358 0.005,-0.271 -0.004,-0.4053 l 1.00256,-0.7812 -0.72001,-1.6856 -1.26566,0.1857 c -0.089,-0.096 -0.18362,-0.188 -0.28321,-0.275 l 0.15782,-1.2716 z m -0.78964,3.0337 a 1.7252337,1.7252337 0 0 1 1.44131,1.0105 1.7252337,1.7252337 0 0 1 -0.86278,2.2823 1.7252337,1.7252337 0 0 1 -2.28195,-0.863 1.7252337,1.7252337 0 0 1 0.86275,-2.282 1.7252337,1.7252337 0 0 1 0.84067,-0.1478 z"
       id="path3205-0"
       inkscape:connector-curvature="0"
       inkscape:export-filename="C:\Users\mohse\Desktop\path3474.png"
       inkscape:export-xdpi="96.400002"
       inkscape:export-ydpi="96.400002" />
    <path
       inkscape:connector-curvature="0"
       id="path3207-2"
       d="m 234.08624,142.87241 -0.21653,0.8357 c -0.0782,0.029 -0.15468,0.061 -0.22905,0.097 l -0.7452,-0.429 -0.86231,0.8707 0.43609,0.7409 c -0.0363,0.077 -0.0684,0.1561 -0.0969,0.237 l -0.84016,0.2262 0.005,1.2253 0.84227,0.2182 c 0.0285,0.078 0.06,0.1537 0.0953,0.2277 l -0.43405,0.7536 0.87053,0.8624 0.74488,-0.4384 c 0.0763,0.036 0.15457,0.068 0.23485,0.097 l 0.22447,0.8337 h 1.22505 l 0.21505,-0.8293 c 0.085,-0.03 0.1678,-0.065 0.24831,-0.1035 l 0.7452,0.4291 0.86241,-0.8706 -0.43611,-0.7408 c 0.0372,-0.079 0.0699,-0.1595 0.0986,-0.2423 l 0.82084,-0.2207 -0.005,-1.2253 -0.82288,-0.2133 c -0.0311,-0.085 -0.0654,-0.169 -0.10472,-0.2499 l 0.42397,-0.7364 -0.87053,-0.8623 -0.737,0.4338 c -0.0794,-0.037 -0.16105,-0.07 -0.24461,-0.099 l -0.2227,-0.8272 z m 0.27538,2.0776 a 1.1533787,1.1533787 0 0 1 1.14713,0.2626 1.1533787,1.1533787 0 0 1 0.0408,1.6307 1.1533787,1.1533787 0 0 1 -1.63055,0.04 1.1533787,1.1533787 0 0 1 -0.0408,-1.6305 1.1533787,1.1533787 0 0 1 0.48334,-0.3033 z"
       style="fill:#494848;fill-opacity:1;stroke-width:0.08682805"
       inkscape:export-filename="C:\Users\mohse\Desktop\path3474.png"
       inkscape:export-xdpi="96.400002"
       inkscape:export-ydpi="96.400002" />
    <path
       inkscape:connector-curvature="0"
       id="path3209-4"
       d="m 191.52057,172.54601 v 20.5395 h 10.40979 c 7.31199,0 10.49703,-7.5405 5.77868,-11.0038 3.41946,-3.7557 0.17634,-9.5357 -5.45703,-9.5357 z"
       style="opacity:1;fill:#eaeaea;fill-opacity:1;stroke:none;stroke-width:0.24033074;stroke-linecap:round;stroke-miterlimit:4;stroke-dasharray:0.72099216, 0.72099216;stroke-dashoffset:0;stroke-opacity:1;paint-order:markers stroke fill"
       inkscape:export-filename="C:\Users\mohse\Desktop\path3474.png"
       inkscape:export-xdpi="96.400002"
       inkscape:export-ydpi="96.400002" />
    <path
       inkscape:connector-curvature="0"
       id="path3211-2"
       d="m 203.8844,181.62931 -0.77112,1.0358 c -0.12441,0 -0.24857,0 -0.37185,0 l -0.79063,-1.0146 -1.68562,0.7204 0.18658,1.2722 c -0.0936,0.086 -0.18286,0.1777 -0.2679,0.2739 l -1.29151,-0.1604 -0.68285,1.701 1.04397,0.7771 c -0.004,0.1236 -0.004,0.2469 0.004,0.3693 l -1.02624,0.7994 0.72001,1.6856 1.27919,-0.1875 c 0.0853,0.093 0.17562,0.1819 0.2708,0.2665 l -0.15893,1.2816 1.70062,0.6825 0.7654,-1.0276 c 0.13466,0.01 0.26906,0.01 0.40239,0 l 0.79063,1.0145 1.6856,-0.72 -0.18656,-1.2723 c 0.0957,-0.088 0.18678,-0.1816 0.27319,-0.2801 l 1.2617,0.157 0.68285,-1.7009 -1.01986,-0.7594 c 0.005,-0.1358 0.005,-0.2709 -0.004,-0.4052 l 1.00255,-0.7813 -0.72,-1.6856 -1.26566,0.1857 c -0.089,-0.096 -0.18363,-0.188 -0.28321,-0.275 l 0.15783,-1.2716 z m -0.78964,3.0338 a 1.7252337,1.7252337 0 0 1 1.44131,1.0105 1.7252337,1.7252337 0 0 1 -0.86277,2.2823 1.7252337,1.7252337 0 0 1 -2.28197,-0.8631 1.7252337,1.7252337 0 0 1 0.86276,-2.282 1.7252337,1.7252337 0 0 1 0.84067,-0.1477 z"
       style="fill:#494848;fill-opacity:1;stroke-width:0.12987816"
       inkscape:export-filename="C:\Users\mohse\Desktop\path3474.png"
       inkscape:export-xdpi="96.400002"
       inkscape:export-ydpi="96.400002" />
    <path
       style="fill:#494848;fill-opacity:1;stroke-width:0.08682805"
       d="m 202.33621,174.62251 -0.21653,0.8357 c -0.0782,0.029 -0.15466,0.061 -0.22903,0.097 l -0.74521,-0.4291 -0.86231,0.8707 0.43609,0.7409 c -0.0363,0.077 -0.0684,0.1561 -0.0969,0.2371 l -0.84014,0.2261 0.005,1.2253 0.84227,0.2182 c 0.0285,0.078 0.06,0.1538 0.0953,0.2277 l -0.43406,0.7536 0.87054,0.8624 0.74489,-0.4384 c 0.0763,0.036 0.15456,0.068 0.23483,0.097 l 0.22449,0.8337 h 1.22504 l 0.21506,-0.8292 c 0.085,-0.03 0.1678,-0.065 0.24831,-0.1036 l 0.74519,0.4291 0.8624,-0.8706 -0.4361,-0.7408 c 0.0372,-0.079 0.0699,-0.1595 0.0986,-0.2423 l 0.82085,-0.2207 -0.005,-1.2253 -0.82288,-0.2133 c -0.0311,-0.085 -0.0654,-0.169 -0.10473,-0.2498 l 0.42398,-0.7364 -0.87054,-0.8624 -0.73699,0.4339 c -0.0794,-0.037 -0.16105,-0.07 -0.24462,-0.099 l -0.22268,-0.8273 z m 0.27539,2.0775 a 1.1533787,1.1533787 0 0 1 1.14712,0.2626 1.1533787,1.1533787 0 0 1 0.0408,1.6307 1.1533787,1.1533787 0 0 1 -1.63055,0.04 1.1533787,1.1533787 0 0 1 -0.0408,-1.6305 1.1533787,1.1533787 0 0 1 0.48334,-0.3033 z"
       id="path3213-7"
       inkscape:connector-curvature="0"
       inkscape:export-filename="C:\Users\mohse\Desktop\path3474.png"
       inkscape:export-xdpi="96.400002"
       inkscape:export-ydpi="96.400002" />
    <g
       id="g2941-5"
       transform="matrix(1.0013601,0,0,1.0013601,111.02047,209.26778)"
       style="fill:#181818;fill-opacity:1;stroke:none"
       inkscape:export-filename="C:\Users\mohse\Desktop\path3474.png"
       inkscape:export-xdpi="96.400002"
       inkscape:export-ydpi="96.400002">
      <path
         id="path2939-6"
         d="m 15.520482,24.001 c -0.176,0 -0.346,-0.093 -0.438,-0.257 L 13.346,19.756 10.807,21.741 C 10.658,21.859 10.453,21.88 10.281,21.796 10.109,21.712 10,21.538 10,21.347 V 7.501 c 0,-0.202 0.122,-0.385 0.309,-0.462 0.187,-0.078 0.401,-0.034 0.545,0.108 l 10,10 c 0.143,0.143 0.186,0.358 0.108,0.545 -0.078,0.187 -0.26,0.309 -0.462,0.309 h -3.15 l 2.088,3.277482 c 0.065,0.119 0.08,0.26 0.04,0.391 -0.04,0.13 -0.135442,0.231552 -0.254,0.299 L 15.744482,23.948 c -0.06997,0.03981 -0.149,0.053 -0.224,0.053 z M 13.5,18.501 c 0.033,0 0.066,0.003 0.1,0.01 0.143,0.029 0.267,0.12 0.338,0.248 L 15.725482,22.841 18.31,21.308482 C 15.611094,16.86258 14.440201,17.002 19.294,17.002 L 11,8.708 v 11.613 l 2.192,-1.714 C 13.28,18.538 13.39,18.501 13.5,18.501 Z"
         inkscape:connector-curvature="0"
         sodipodi:nodetypes="scccsssccssscccssssccccccccs"
         style="fill:#181818;fill-opacity:1;stroke:none" />
    </g>
    <path
       inkscape:connector-curvature="0"
       id="path3215-7"
       d="m 223.2706,204.29601 v 20.5395 h 10.40977 c 7.312,0 10.49703,-7.5404 5.77869,-11.0038 3.41947,-3.7557 0.17634,-9.5357 -5.45704,-9.5357 z"
       style="opacity:1;fill:#eaeaea;fill-opacity:1;stroke:none;stroke-width:0.24033074;stroke-linecap:round;stroke-miterlimit:4;stroke-dasharray:0.72099216, 0.72099216;stroke-dashoffset:0;stroke-opacity:1;paint-order:markers stroke fill"
       inkscape:export-filename="C:\Users\mohse\Desktop\path3474.png"
       inkscape:export-xdpi="96.400002"
       inkscape:export-ydpi="96.400002" />
    <path
       inkscape:connector-curvature="0"
       id="path3217-0"
       d="m 235.63442,213.37931 -0.77112,1.0358 c -0.12441,0 -0.24858,0 -0.37185,0 l -0.79063,-1.0145 -1.68563,0.7203 0.18658,1.2723 c -0.0936,0.086 -0.18285,0.1777 -0.26789,0.2738 l -1.29151,-0.1603 -0.68286,1.7009 1.04399,0.7771 c -0.004,0.1236 -0.004,0.2469 0.004,0.3693 l -1.02624,0.7994 0.72,1.6856 1.27918,-0.1874 c 0.0853,0.093 0.17561,0.1818 0.27081,0.2665 l -0.15894,1.2816 1.70063,0.6825 0.7654,-1.0277 c 0.13466,0.01 0.26906,0.01 0.40237,0 l 0.79066,1.0145 1.68557,-0.72 -0.18655,-1.2722 c 0.0957,-0.088 0.18677,-0.1817 0.27318,-0.2802 l 1.26173,0.157 0.68282,-1.7009 -1.01986,-0.7594 c 0.005,-0.1358 0.005,-0.2709 -0.004,-0.4052 l 1.00256,-0.7813 -0.72001,-1.6856 -1.26566,0.1857 c -0.089,-0.096 -0.18362,-0.188 -0.28321,-0.2749 l 0.15782,-1.2717 z m -0.78964,3.0338 a 1.7252337,1.7252337 0 0 1 1.44131,1.0105 1.7252337,1.7252337 0 0 1 -0.86278,2.2823 1.7252337,1.7252337 0 0 1 -2.28195,-0.8631 1.7252337,1.7252337 0 0 1 0.86275,-2.282 1.7252337,1.7252337 0 0 1 0.84067,-0.1477 z"
       style="fill:#494848;fill-opacity:1;stroke-width:0.12987816"
       inkscape:export-filename="C:\Users\mohse\Desktop\path3474.png"
       inkscape:export-xdpi="96.400002"
       inkscape:export-ydpi="96.400002" />
    <path
       style="fill:#494848;fill-opacity:1;stroke-width:0.08682805"
       d="m 234.08624,206.37251 -0.21653,0.8357 c -0.0782,0.029 -0.15468,0.061 -0.22905,0.097 l -0.7452,-0.4291 -0.86231,0.8708 0.43609,0.7408 c -0.0363,0.077 -0.0684,0.1561 -0.0969,0.2371 l -0.84016,0.2261 0.005,1.2253 0.84227,0.2182 c 0.0285,0.078 0.06,0.1538 0.0953,0.2278 l -0.43405,0.7536 0.87053,0.8623 0.74488,-0.4384 c 0.0763,0.036 0.15457,0.068 0.23485,0.097 l 0.22447,0.8337 h 1.22505 l 0.21505,-0.8292 c 0.085,-0.03 0.1678,-0.065 0.24831,-0.1035 l 0.7452,0.429 0.86241,-0.8705 -0.43611,-0.7409 c 0.0372,-0.079 0.0699,-0.1595 0.0986,-0.2423 l 0.82084,-0.2206 -0.005,-1.2254 -0.82288,-0.2133 c -0.0311,-0.085 -0.0654,-0.1689 -0.10472,-0.2498 l 0.42397,-0.7364 -0.87053,-0.8624 -0.737,0.4339 c -0.0794,-0.037 -0.16105,-0.07 -0.24461,-0.099 l -0.2227,-0.8272 z m 0.27538,2.0775 a 1.1533787,1.1533787 0 0 1 1.14713,0.2627 1.1533787,1.1533787 0 0 1 0.0408,1.6306 1.1533787,1.1533787 0 0 1 -1.63055,0.04 1.1533787,1.1533787 0 0 1 -0.0408,-1.6304 1.1533787,1.1533787 0 0 1 0.48334,-0.3034 z"
       id="path3219-3"
       inkscape:connector-curvature="0"
       inkscape:export-filename="C:\Users\mohse\Desktop\path3474.png"
       inkscape:export-xdpi="96.400002"
       inkscape:export-ydpi="96.400002" />
    <path
       style="opacity:1;fill:#eaeaea;fill-opacity:1;stroke:none;stroke-width:0.24033074;stroke-linecap:round;stroke-miterlimit:4;stroke-dasharray:0.72099216, 0.72099216;stroke-dashoffset:0;stroke-opacity:1;paint-order:markers stroke fill"
       d="m 191.52057,204.29601 v 20.5395 h 10.40979 c 7.31199,0 10.49703,-7.5404 5.77868,-11.0038 3.41946,-3.7557 0.17634,-9.5357 -5.45703,-9.5357 z"
       id="path3221-9"
       inkscape:connector-curvature="0"
       inkscape:export-filename="C:\Users\mohse\Desktop\path3474.png"
       inkscape:export-xdpi="96.400002"
       inkscape:export-ydpi="96.400002" />
    <path
       style="fill:#494848;fill-opacity:1;stroke-width:0.12987816"
       d="m 203.8844,213.37931 -0.77112,1.0358 c -0.12441,0 -0.24857,0 -0.37185,0 l -0.79063,-1.0145 -1.68562,0.7203 0.18658,1.2723 c -0.0936,0.086 -0.18286,0.1777 -0.2679,0.2738 l -1.29151,-0.1603 -0.68285,1.7009 1.04397,0.7771 c -0.004,0.1236 -0.004,0.2469 0.004,0.3693 l -1.02624,0.7994 0.72001,1.6856 1.27919,-0.1874 c 0.0853,0.093 0.17562,0.1818 0.2708,0.2665 l -0.15893,1.2816 1.70062,0.6825 0.7654,-1.0277 c 0.13466,0.01 0.26906,0.01 0.40239,0 l 0.79063,1.0145 1.6856,-0.72 -0.18656,-1.2722 c 0.0957,-0.088 0.18678,-0.1817 0.27319,-0.2802 l 1.2617,0.157 0.68285,-1.7009 -1.01986,-0.7594 c 0.005,-0.1358 0.005,-0.2709 -0.004,-0.4052 l 1.00255,-0.7813 -0.72,-1.6856 -1.26566,0.1857 c -0.089,-0.096 -0.18363,-0.188 -0.28321,-0.2749 l 0.15783,-1.2717 z m -0.78964,3.0338 a 1.7252337,1.7252337 0 0 1 1.44131,1.0105 1.7252337,1.7252337 0 0 1 -0.86277,2.2823 1.7252337,1.7252337 0 0 1 -2.28197,-0.8631 1.7252337,1.7252337 0 0 1 0.86276,-2.282 1.7252337,1.7252337 0 0 1 0.84067,-0.1477 z"
       id="path3223-9"
       inkscape:connector-curvature="0"
       inkscape:export-filename="C:\Users\mohse\Desktop\path3474.png"
       inkscape:export-xdpi="96.400002"
       inkscape:export-ydpi="96.400002" />
    <path
       inkscape:connector-curvature="0"
       id="path3225-8"
       d="m 202.33621,206.37251 -0.21653,0.8357 c -0.0782,0.029 -0.15466,0.061 -0.22903,0.097 l -0.74521,-0.4291 -0.86231,0.8708 0.43609,0.7408 c -0.0363,0.077 -0.0684,0.1561 -0.0969,0.2371 l -0.84014,0.2261 0.005,1.2253 0.84227,0.2182 c 0.0285,0.078 0.06,0.1538 0.0953,0.2278 l -0.43406,0.7536 0.87054,0.8623 0.74489,-0.4384 c 0.0763,0.036 0.15456,0.068 0.23483,0.097 l 0.22449,0.8337 h 1.22504 l 0.21506,-0.8292 c 0.085,-0.03 0.1678,-0.065 0.24831,-0.1035 l 0.74519,0.429 0.8624,-0.8705 -0.4361,-0.7409 c 0.0372,-0.079 0.0699,-0.1595 0.0986,-0.2423 l 0.82085,-0.2206 -0.005,-1.2254 -0.82288,-0.2133 c -0.0311,-0.085 -0.0654,-0.1689 -0.10473,-0.2498 l 0.42398,-0.7364 -0.87054,-0.8624 -0.73699,0.4339 c -0.0794,-0.037 -0.16105,-0.07 -0.24462,-0.099 l -0.22268,-0.8272 z m 0.27539,2.0775 a 1.1533787,1.1533787 0 0 1 1.14712,0.2627 1.1533787,1.1533787 0 0 1 0.0408,1.6306 1.1533787,1.1533787 0 0 1 -1.63055,0.04 1.1533787,1.1533787 0 0 1 -0.0408,-1.6304 1.1533787,1.1533787 0 0 1 0.48334,-0.3034 z"
       style="fill:#494848;fill-opacity:1;stroke-width:0.08682805"
       inkscape:export-filename="C:\Users\mohse\Desktop\path3474.png"
       inkscape:export-xdpi="96.400002"
       inkscape:export-ydpi="96.400002" />
    <g
       id="g3231-5"
       transform="matrix(0.40985662,0,0,0.40985662,132.51869,228.0137)"
       style="fill:#eb4e19;fill-opacity:1;stroke:none"
       inkscape:export-filename="C:\Users\mohse\Desktop\path3474.png"
       inkscape:export-xdpi="96.400002"
       inkscape:export-ydpi="96.400002">
      <polygon
         points="14.5,14.504 8.008,14.504 8.008,11.016 3,16.023 8.008,21.031 8.008,17.504 14.5,17.504 14.5,24.008 11.016,24.008 16.023,29.016 21.031,24.008 17.5,24.008 17.5,17.504 24.008,17.504 24.008,21.031 29.016,16.023 24.008,11.016 24.008,14.504 17.5,14.504 17.5,8.008 21.016,8.008 16.008,3 11,8.008 14.5,8.008 "
         id="polygon3229-2"
         style="fill:#eb4e19;fill-opacity:1;stroke:none" />
    </g>
    <path
       style="opacity:1;fill:#eb4e19;fill-opacity:1;stroke:none;stroke-width:1.19805038;stroke-linecap:round;stroke-miterlimit:4;stroke-dasharray:3.59415036, 3.59415036;stroke-dashoffset:0;stroke-opacity:1;paint-order:markers stroke fill"
       id="path3271-1"
       sodipodi:type="arc"
       sodipodi:cx="224.11113"
       sodipodi:cy="160.14774"
       sodipodi:rx="3.4356451"
       sodipodi:ry="3.4356451"
       sodipodi:start="1.0979762"
       sodipodi:end="1.0979133"
       sodipodi:open="true"
       d="m 225.67572,163.20645 a 3.4356451,3.4356451 0 0 1 -4.62328,-1.49408 3.4356451,3.4356451 0 0 1 1.494,-4.6233 3.4356451,3.4356451 0 0 1 4.62333,1.49393 3.4356451,3.4356451 0 0 1 -1.49386,4.62335"
       inkscape:export-filename="C:\Users\mohse\Desktop\path3474.png"
       inkscape:export-xdpi="96.400002"
       inkscape:export-ydpi="96.400002" />
    <rect
       style="opacity:1;fill:#2a2a2a;fill-opacity:1;stroke:none;stroke-width:0.11184856;stroke-linecap:round;stroke-miterlimit:4;stroke-dasharray:0.33554566, 0.33554566;stroke-dashoffset:0;stroke-opacity:1;paint-order:markers stroke fill"
       id="rect3273-2"
       width="78.630722"
       height="21.989046"
       x="177.94739"
       y="107.69704"
       ry="0"
       inkscape:export-filename="C:\Users\mohse\Desktop\path3474.png"
       inkscape:export-xdpi="96.400002"
       inkscape:export-ydpi="96.400002" />
    <path
       d="m 193.92555,163.20645 a 3.4356451,3.4356451 0 0 1 -4.62328,-1.49408 3.4356451,3.4356451 0 0 1 1.49401,-4.6233 3.4356451,3.4356451 0 0 1 4.62332,1.49393 3.4356451,3.4356451 0 0 1 -1.49386,4.62335"
       sodipodi:open="true"
       sodipodi:end="1.0979133"
       sodipodi:start="1.0979762"
       sodipodi:ry="3.4356451"
       sodipodi:rx="3.4356451"
       sodipodi:cy="160.14774"
       sodipodi:cx="192.36096"
       sodipodi:type="arc"
       id="path3275-0"
       style="opacity:1;fill:#eb4e19;fill-opacity:1;stroke:none;stroke-width:1.19805038;stroke-linecap:round;stroke-miterlimit:4;stroke-dasharray:3.59415036, 3.59415036;stroke-dashoffset:0;stroke-opacity:1;paint-order:markers stroke fill"
       inkscape:export-filename="C:\Users\mohse\Desktop\path3474.png"
       inkscape:export-xdpi="96.400002"
       inkscape:export-ydpi="96.400002" />
    <path
       style="opacity:1;fill:#eb4e19;fill-opacity:1;stroke:none;stroke-width:1.19805038;stroke-linecap:round;stroke-miterlimit:4;stroke-dasharray:3.59415036, 3.59415036;stroke-dashoffset:0;stroke-opacity:1;paint-order:markers stroke fill"
       id="path3279-2"
       sodipodi:type="arc"
       sodipodi:cx="192.36096"
       sodipodi:cy="191.89784"
       sodipodi:rx="3.4356451"
       sodipodi:ry="3.4356451"
       sodipodi:start="1.0979762"
       sodipodi:end="1.0979133"
       sodipodi:open="true"
       d="m 193.92555,194.95655 a 3.4356451,3.4356451 0 0 1 -4.62328,-1.49407 3.4356451,3.4356451 0 0 1 1.49401,-4.6233 3.4356451,3.4356451 0 0 1 4.62332,1.49393 3.4356451,3.4356451 0 0 1 -1.49386,4.62335"
       inkscape:export-filename="C:\Users\mohse\Desktop\path3474.png"
       inkscape:export-xdpi="96.400002"
       inkscape:export-ydpi="96.400002" />
    <path
       style="opacity:1;fill:#eb4e19;fill-opacity:1;stroke:none;stroke-width:1.19805038;stroke-linecap:round;stroke-miterlimit:4;stroke-dasharray:3.59415036, 3.59415036;stroke-dashoffset:0;stroke-opacity:1;paint-order:markers stroke fill"
       id="path3281-0"
       sodipodi:type="arc"
       sodipodi:cx="224.11113"
       sodipodi:cy="223.64798"
       sodipodi:rx="3.4356451"
       sodipodi:ry="3.4356451"
       sodipodi:start="1.0979762"
       sodipodi:end="1.0979133"
       sodipodi:open="true"
       d="m 225.67572,226.70669 a 3.4356451,3.4356451 0 0 1 -4.62328,-1.49407 3.4356451,3.4356451 0 0 1 1.494,-4.6233 3.4356451,3.4356451 0 0 1 4.62333,1.49393 3.4356451,3.4356451 0 0 1 -1.49386,4.62334"
       inkscape:export-filename="C:\Users\mohse\Desktop\path3474.png"
       inkscape:export-xdpi="96.400002"
       inkscape:export-ydpi="96.400002" />
    <path
       d="m 193.92555,226.70669 a 3.4356451,3.4356451 0 0 1 -4.62328,-1.49407 3.4356451,3.4356451 0 0 1 1.49401,-4.6233 3.4356451,3.4356451 0 0 1 4.62332,1.49393 3.4356451,3.4356451 0 0 1 -1.49386,4.62334"
       sodipodi:open="true"
       sodipodi:end="1.0979133"
       sodipodi:start="1.0979762"
       sodipodi:ry="3.4356451"
       sodipodi:rx="3.4356451"
       sodipodi:cy="223.64798"
       sodipodi:cx="192.36096"
       sodipodi:type="arc"
       id="path3283-8"
       style="opacity:1;fill:#eb4e19;fill-opacity:1;stroke:none;stroke-width:1.19805038;stroke-linecap:round;stroke-miterlimit:4;stroke-dasharray:3.59415036, 3.59415036;stroke-dashoffset:0;stroke-opacity:1;paint-order:markers stroke fill"
       inkscape:export-filename="C:\Users\mohse\Desktop\path3474.png"
       inkscape:export-xdpi="96.400002"
       inkscape:export-ydpi="96.400002" />
    <path
       style="opacity:1;fill:#eb4e19;fill-opacity:1;stroke:none;stroke-width:3.0378418;stroke-linecap:round;stroke-miterlimit:4;stroke-dasharray:9.11352429, 9.11352429;stroke-dashoffset:0;stroke-opacity:1;paint-order:markers stroke fill"
       id="path3474"
       sodipodi:type="arc"
       sodipodi:cx="222.46925"
       sodipodi:cy="61.011822"
       sodipodi:rx="8.7116098"
       sodipodi:ry="8.7116098"
       sodipodi:start="1.0979762"
       sodipodi:end="1.0979133"
       sodipodi:open="true"
       d="m 226.43651,68.76766 a 8.7116098,8.7116098 0 0 1 -11.72303,-3.788459 8.7116098,8.7116098 0 0 1 3.78827,-11.723092 8.7116098,8.7116098 0 0 1 11.72315,3.78809 8.7116098,8.7116098 0 0 1 -3.7879,11.723211"
       transform="rotate(51.833057)"
       inkscape:export-filename="C:\Users\mohse\Desktop\path3474.png"
       inkscape:export-xdpi="96.400002"
       inkscape:export-ydpi="96.400002" />
  </g>
</svg>
