<?xml version="1.0" encoding="UTF-8" standalone="no"?>
<!-- Created with Inkscape (http://www.inkscape.org/) -->

<svg
   xmlns:dc="http://purl.org/dc/elements/1.1/"
   xmlns:cc="http://creativecommons.org/ns#"
   xmlns:rdf="http://www.w3.org/1999/02/22-rdf-syntax-ns#"
   xmlns:svg="http://www.w3.org/2000/svg"
   xmlns="http://www.w3.org/2000/svg"
   xmlns:xlink="http://www.w3.org/1999/xlink"
   xmlns:sodipodi="http://sodipodi.sourceforge.net/DTD/sodipodi-0.dtd"
   xmlns:inkscape="http://www.inkscape.org/namespaces/inkscape"
   width="300mm"
   height="300mm"
   viewBox="0 0 300 300"
   version="1.1"
   id="svg1251"
   inkscape:version="0.92.3 (2405546, 2018-03-11)"
   sodipodi:docname="scalable11.svg">
  <defs
     id="defs1245">
    <linearGradient
       inkscape:collect="always"
       id="linearGradient852">
      <stop
         style="stop-color:#efefef;stop-opacity:1;"
         offset="0"
         id="stop848" />
      <stop
         style="stop-color:#efefef;stop-opacity:0;"
         offset="1"
         id="stop850" />
    </linearGradient>
    <linearGradient
       inkscape:collect="always"
       xlink:href="#linearGradient852"
       id="linearGradient854"
       x1="25.552095"
       y1="338.88745"
       x2="188.63799"
       y2="93.701729"
       gradientUnits="userSpaceOnUse" />
  </defs>
  <sodipodi:namedview
     id="base"
     pagecolor="#ffffff"
     bordercolor="#666666"
     borderopacity="1.0"
     inkscape:pageopacity="0.0"
     inkscape:pageshadow="2"
     inkscape:zoom="0.35"
     inkscape:cx="593.86915"
     inkscape:cy="621.90476"
     inkscape:document-units="mm"
     inkscape:current-layer="layer1"
     showgrid="false"
     inkscape:window-width="1366"
     inkscape:window-height="715"
     inkscape:window-x="-8"
     inkscape:window-y="-8"
     inkscape:window-maximized="1" />
  <metadata
     id="metadata1248">
    <rdf:RDF>
      <cc:Work
         rdf:about="">
        <dc:format>image/svg+xml</dc:format>
        <dc:type
           rdf:resource="http://purl.org/dc/dcmitype/StillImage" />
        <dc:title />
      </cc:Work>
    </rdf:RDF>
  </metadata>
  <g
     inkscape:label="Layer 1"
     inkscape:groupmode="layer"
     id="layer1"
     transform="translate(0,3)">
    <path
       inkscape:export-ydpi="96.400002"
       inkscape:export-xdpi="96.400002"
       inkscape:export-filename="C:\Users\mohse\Desktop\path3474.png"
       sodipodi:nodetypes="cccccc"
       inkscape:connector-curvature="0"
       id="path2136"
       d="M 42.587764,195.86638 C 72.938447,264.9236 126.21454,282.15785 193.63103,267.42797 284.07059,252.65111 309.11818,207.20051 290.97099,164.10739 270.74229,117.01785 219.12437,141.04585 189.39683,88.758089 156.90829,23.014379 123.91187,27.451347 90.87241,37.835428 49.828765,55.135026 10.569359,109.18962 42.587764,195.86638 Z"
       style="fill:#d2ebfb;fill-opacity:1;stroke:none;stroke-width:6.57816458;stroke-linecap:butt;stroke-linejoin:miter;stroke-opacity:1" />
    <path
       sodipodi:nodetypes="ccccccccc"
       inkscape:connector-curvature="0"
       id="path831"
       d="M 158.6449,45.78105 65.863935,94.435278 v 0 l 4.83e-4,104.031392 89.678232,48.98908 88.27986,-48.04138 V 91.697662 h -4.7e-4 z"
       style="opacity:0.9;fill:#ffffff;fill-opacity:1;stroke:none;stroke-width:3.93503928;stroke-linecap:butt;stroke-linejoin:miter;stroke-miterlimit:4;stroke-dasharray:15.74015712, 3.93503927;stroke-dashoffset:5.58061981;stroke-opacity:1" />
    <path
       style="fill:url(#linearGradient854);fill-opacity:1;stroke:none;stroke-width:3.93503928;stroke-linecap:butt;stroke-linejoin:miter;stroke-miterlimit:4;stroke-dasharray:15.74015712, 3.93503927;stroke-dashoffset:5.58061981;stroke-opacity:1"
       d="M 158.6449,45.78105 65.863935,94.435278 v 0 l 4.83e-4,104.031392 89.678232,48.98908 88.27986,-48.04138 V 91.697662 h -4.7e-4 z"
       id="path846"
       inkscape:connector-curvature="0"
       sodipodi:nodetypes="ccccccccc" />
    <path
       style="fill:#ffffff;fill-opacity:1;stroke:#eb4e19;stroke-width:3.15874934;stroke-linecap:butt;stroke-linejoin:miter;stroke-miterlimit:4;stroke-dasharray:12.6349968, 3.1587492;stroke-dashoffset:0.76919997;stroke-opacity:1"
       d="M 157.89531,84.184629 83.408479,123.24549 v 0 l 3.88e-4,83.51893 71.995883,39.32963 70.87323,-38.56879 v -86.47761 h -4e-4 z"
       id="path918"
       inkscape:connector-curvature="0"
       sodipodi:nodetypes="ccccccccc" />
    <path
       style="fill:#d2ebfb;fill-opacity:1;stroke:none;stroke-width:0.26458332px;stroke-linecap:butt;stroke-linejoin:miter;stroke-opacity:1"
       d="m 99.298733,218.56311 5.186947,0.0601 16.32014,8.68626 33.59745,15.07297 38.78981,-16.91444 13.41815,-7.08705 2.36235,1.88988 -20.26897,10.81957 -33.43328,18.2459 -37.17161,-20.22276 -17.63979,-9.45466 z"
       id="path844"
       inkscape:connector-curvature="0"
       sodipodi:nodetypes="cccccccccccc" />
    <path
       style="fill:#ffffff;fill-opacity:1;stroke:#1e1e1e;stroke-width:2.83081412;stroke-linecap:butt;stroke-linejoin:miter;stroke-miterlimit:4;stroke-dasharray:11.32325695, 2.83081424;stroke-dashoffset:0;stroke-opacity:1"
       d="m 157.00946,130.07214 -55.07109,28.29327 v 3.7e-4 60.49486 l 53.22992,28.48729 52.39968,-27.93636 v -62.63815 h -3.8e-4 z"
       id="path871-8"
       inkscape:connector-curvature="0" />
    <path
       style="fill:#494848;fill-opacity:1;stroke:none;stroke-width:0.25015309px;stroke-linecap:butt;stroke-linejoin:miter;stroke-opacity:1"
       d="m 156.53506,167.18239 -37.79507,19.81978 35.56976,27.9577 36.9231,-29.07285 z"
       id="path871"
       inkscape:connector-curvature="0"
       sodipodi:nodetypes="ccccc" />
    <path
       style="fill:#1e1e1e;fill-opacity:1;stroke:none;stroke-width:0.25015309px;stroke-linecap:butt;stroke-linejoin:miter;stroke-opacity:1"
       d="m 118.74018,187.00225 v 42.378 l 36.53115,19.95605 35.96147,-19.57008 v -43.87939 l -35.91212,20.73437 z"
       id="path873"
       inkscape:connector-curvature="0"
       sodipodi:nodetypes="ccccccc" />
  </g>
</svg>
